0	1.48479e-314	0.953214	
0	1.48479e-314	0.953267	
0	1.48479e-314	0.953492	
0	1.48479e-314	0.953659	
0	1.48479e-314	0.95386	
0	1.48479e-314	0.955417	
0	1.48479e-314	0.955837	
0	1.48479e-314	0.956778	
0	1.48479e-314	0.957303	
0	1.48479e-314	0.957863	
0	1.48479e-314	0.958449	
0	1.48479e-314	0.959075	
0	1.48479e-314	0.959734	
0	1.48479e-314	0.960418	
0	1.48479e-314	0.961141	
0	1.48479e-314	0.961896	
0	1.48479e-314	0.962673	
0	1.48479e-314	0.963488	
0	1.48479e-314	0.964333	
0	1.48479e-314	0.965197	
0	1.48479e-314	0.9661	
0	1.48479e-314	0.967019	
0	1.48479e-314	0.967975	
0	1.48479e-314	0.968958	
0	1.48479e-314	0.969955	
0	1.48479e-314	0.970988	
0	1.48479e-314	0.972045	
0	1.48479e-314	0.973126	
0	1.48479e-314	0.974216	
0	1.48479e-314	0.97534	
0	1.48479e-314	0.976472	
0	1.48479e-314	0.977637	
0	1.48479e-314	0.978821	
0	1.48479e-314	0.980009	
0	1.48479e-314	0.981228	
0	1.48479e-314	0.982464	
0	1.48479e-314	0.983701	
0	1.48479e-314	0.984966	
0	1.48479e-314	0.986245	
0	1.48479e-314	0.987522	
0	1.48479e-314	0.988826	
0	1.48479e-314	0.99014	
0	1.48479e-314	0.991449	
0	1.48479e-314	0.992781	
0	1.48479e-314	0.994121	
0	1.48479e-314	0.996806	
0	1.48479e-314	0.998163	
0	1.48479e-314	0.999509	
0	1.48479e-314	1.00087	
0	1.48479e-314	1.00224	
0	1.48479e-314	1.00359	
0	1.48479e-314	1.00496	
0	1.48479e-314	1.00632	
0	1.48479e-314	1.00767	
0	1.48479e-314	1.00903	
0	1.48479e-314	1.01038	
0	1.48479e-314	1.01172	
0	1.48479e-314	1.01306	
0	1.48479e-314	1.0144	
0	1.48479e-314	1.01571	
0	1.48479e-314	1.01703	
0	1.48479e-314	1.01833	
0	1.48479e-314	1.01962	
0	1.48479e-314	1.0209	
0	1.48479e-314	1.02217	
0	1.48479e-314	1.02341	
0	1.48479e-314	1.02466	
0	1.48479e-314	1.02588	
0	1.48479e-314	1.02708	
0	1.48479e-314	1.02827	
0	1.48479e-314	1.02943	
0	1.48479e-314	1.03058	
0	1.48479e-314	1.03172	
0	1.48479e-314	1.03283	
0	1.48479e-314	1.0339	
0	1.48479e-314	1.03497	
0	1.48479e-314	1.03601	
0	1.48479e-314	1.03702	
0	1.48479e-314	1.03802	
0	1.48479e-314	1.03898	
0	1.48479e-314	1.03991	
0	1.48479e-314	1.04083	
0	1.48479e-314	1.0417	
0	1.48479e-314	1.04256	
0	1.48479e-314	1.04339	
0	1.48479e-314	1.04418	
0	1.48479e-314	1.04494	
0	1.48479e-314	1.04568	
0	1.48479e-314	1.04638	
0	1.48479e-314	1.04705	
0	1.48479e-314	1.04769	
0	1.48479e-314	1.0483	
0	1.48479e-314	1.04886	
0	1.48479e-314	1.0494	
0	1.48479e-314	1.04991	
0	1.48479e-314	1.05037	
0	1.48479e-314	1.05081	
0	1.48479e-314	1.05122	
0	1.48479e-314	1.05158	
0	1.48479e-314	1.05191	
0	1.48479e-314	1.0522	
0	1.48479e-314	1.05245	
0	1.48479e-314	1.05266	
0	1.48479e-314	1.05285	
0	1.48479e-314	1.05299	
0	1.48479e-314	1.05309	
0	1.48479e-314	1.05316	
0	1.48479e-314	1.05319	
0	1.48483e-314	1.0532	
0	1.48483e-314	1.0532	
0	1.48483e-314	1.0532	
0	1.48483e-314	1.0532	
0	1.48483e-314	1.0532	
0	1.48483e-314	1.0532	
0	1.48483e-314	1.0532	
0	1.48483e-314	1.0532	
0	1.48483e-314	1.0532	
0	1.48483e-314	1.0532	
0	1.48483e-314	1.0532	
0	1.48483e-314	1.0532	
0	1.48483e-314	1.0532	
0	1.48483e-314	1.0532	
0	1.48483e-314	1.0532	
0	1.48483e-314	1.0532	
0	1.48483e-314	1.0532	
0	1.48483e-314	1.0532	
0	1.48483e-314	1.0532	
0	1.48483e-314	1.0532	
0	1.48483e-314	1.0532	
0	1.48483e-314	1.0532	
0	1.48483e-314	1.0532	
0	1.48483e-314	1.0532	
8.16972e-312	-2.14202e-62	1.0532	
8.16972e-312	-2.14202e-62	1.0532	
8.16972e-312	-2.14202e-62	1.0532	
8.16972e-312	-2.14202e-62	1.0532	
8.16972e-312	-2.14202e-62	1.0532	
8.16972e-312	-2.14202e-62	1.0532	
8.16972e-312	-2.14202e-62	1.0532	
8.16972e-312	-2.14202e-62	1.0532	
8.16972e-312	-2.14202e-62	1.0532	
8.16972e-312	-2.14202e-62	1.0532	
8.16972e-312	-2.14202e-62	1.0532	
8.16972e-312	-2.14202e-62	1.0532	
8.16972e-312	-2.14202e-62	1.0532	
8.16972e-312	-2.14202e-62	1.0532	
8.16972e-312	-2.14202e-62	1.0532	
8.16972e-312	-2.14202e-62	1.0532	
8.16972e-312	-2.14202e-62	1.0532	
8.16972e-312	-2.14202e-62	1.0532	
8.16972e-312	-2.14202e-62	1.0532	
8.16972e-312	-2.14202e-62	1.0532	
8.16972e-312	-2.14202e-62	1.0532	
8.16972e-312	-2.14202e-62	1.0532	
8.16972e-312	-2.14202e-62	1.0532	
8.16972e-312	-2.14202e-62	1.0532	
8.16972e-312	-2.14202e-62	1.0532	
8.16972e-312	-2.14202e-62	1.0532	
8.16972e-312	-2.14202e-62	1.0532	
8.16972e-312	-2.14202e-62	1.0532	
8.16972e-312	-2.14202e-62	1.0532	
8.16972e-312	-2.14202e-62	1.0532	
8.16972e-312	-2.14202e-62	1.0532	
8.16972e-312	-2.14202e-62	1.0532	
8.16972e-312	-2.14202e-62	1.0532	
8.16972e-312	-2.14202e-62	1.0532	
8.16972e-312	-2.14202e-62	1.0532	
8.16972e-312	-2.14202e-62	1.0532	
8.16972e-312	-2.14202e-62	1.0532	
8.16972e-312	-2.14202e-62	1.0532	
8.16972e-312	-2.14202e-62	1.0532	
8.16972e-312	-2.14202e-62	1.0532	
8.16972e-312	-2.14202e-62	1.0532	
8.16972e-312	-2.14202e-62	1.0532	
8.16972e-312	-2.14202e-62	1.0532	
8.16972e-312	-2.14202e-62	1.0532	
8.16972e-312	-2.14202e-62	1.0532	
8.16972e-312	-2.14202e-62	1.0532	
8.16972e-312	-2.14202e-62	1.0532	
8.16972e-312	-2.14202e-62	1.0532	
8.16972e-312	-2.14202e-62	1.0532	
8.16972e-312	-2.14202e-62	1.0532	
8.16972e-312	-2.14202e-62	1.0532	
8.16972e-312	-2.14202e-62	1.0532	
8.16972e-312	-2.14202e-62	1.0532	
8.16972e-312	-2.14202e-62	1.0532	
8.16972e-312	-2.14202e-62	1.0532	
