<?xml version="1.0" encoding="utf-8"?>
<COLLADA version="1.4.0" xmlns="http://www.collada.org/2005/11/COLLADASchema">
	<asset>
		<contributor>
			<author>Illusoft Collada 1.4.0 plugin for Blender - http://colladablender.illusoft.com</author>
			<authoring_tool>Blender v:249 - Illusoft Collada Exporter v:0.3.162</authoring_tool>
			<comments></comments>
			<copyright></copyright>
			<source_data>file:///home/meka/mekabot/meka_support_r1/cad/meshes/lowRes/A1R1/A1R1_RT2_shoulderPitch.blend</source_data>
		</contributor>
		<created>2011-04-10T22:04:33.023469</created>
		<modified>2011-04-10T22:04:33.023497</modified>
		<unit meter="0.01" name="centimeter"/>
		<up_axis>Z_UP</up_axis>
	</asset>
	<library_cameras>
		<camera id="Camera-Camera" name="Camera-Camera">
			<optics>
				<technique_common>
					<perspective>
						<yfov>49.13434</yfov>
						<znear>0.1</znear>
						<zfar>100.0</zfar>
					</perspective>
				</technique_common>
			</optics>
		</camera>
	</library_cameras>
	<library_lights>
		<light id="Spot" name="Spot">
			<technique_common>
				<point>
					<color>1.00000 1.00000 1.00000</color>
					<constant_attenuation>1.0</constant_attenuation>
					<linear_attenuation>0.0</linear_attenuation>
					<quadratic_attenuation>0.0</quadratic_attenuation>
				</point>
			</technique_common>
		</light>
	</library_lights>
	<library_geometries>
		<geometry id="Mesh-Geometry" name="Mesh-Geometry">
			<mesh>
				<source id="Mesh-Geometry-Position">
					<float_array count="3915" id="Mesh-Geometry-Position-array">0.03744 0.03465 0.00494 0.03744 0.01433 0.00666 0.03744 0.03388 0.00876 -0.04379 0.01893 -0.01542 -0.04379 0.02826 -0.02073 -0.04379 0.02570 -0.02384 0.04379 -0.06011 -0.02125 0.04379 -0.05887 -0.02659 0.04379 -0.05139 -0.02125 -0.02824 -0.05617 -0.04772 -0.01669 -0.05239 -0.04772 -0.02824 -0.05239 -0.04772 -0.00755 -0.05922 -0.05026 -0.00755 -0.05922 -0.07020 -0.01116 -0.05797 -0.07020 0.00000 -0.06024 -0.05026 0.00000 -0.06024 -0.07020 -0.00381 -0.05998 -0.07020 0.03744 -0.00575 -0.00009 0.03744 0.00593 -0.00009 0.03744 0.00593 -0.01021 -0.04062 0.02417 -0.02549 -0.04062 0.01028 -0.02890 -0.04062 -0.03377 -0.02549 0.00191 -0.00314 -0.05026 0.00191 -0.00314 -0.07020 0.00569 -0.00365 -0.07020 0.04379 0.02407 0.02530 0.04379 0.01785 0.02998 0.04379 0.00781 0.01003 -0.04379 -0.05139 -0.02537 -0.04379 -0.04642 -0.02958 -0.04379 -0.05139 -0.03458 0.03744 -0.03875 -0.02549 0.03744 -0.05978 -0.02081 0.03744 -0.03875 -0.02081 -0.03744 -0.00758 0.01946 -0.03744 -0.00766 0.03396 -0.03744 -0.01153 0.03284 0.00000 -0.06976 -0.07020 0.01195 -0.06452 -0.07020 0.01111 -0.06976 -0.07020 -0.02593 -0.01963 -0.05026 -0.02409 -0.01628 -0.07020 -0.02409 -0.01628 -0.05026 0.03744 0.00593 -0.01021 0.03744 0.03344 -0.01047 0.03744 0.03208 -0.01411 0.04379 -0.02763 0.02115 0.04379 -0.01760 0.01003 0.04379 -0.02224 0.02676 -0.03744 -0.01530 0.01419 -0.03744 -0.02203 0.02693 -0.03744 -0.02500 0.02420 0.04379 -0.05139 -0.02125 0.04379 -0.03377 -0.02125 0.04379 -0.03377 -0.01021 0.03744 -0.00575 -0.02081 0.03744 -0.00575 -0.01021 0.03744 -0.00246 -0.01359 0.02824 -0.03166 -0.04772 0.03738 -0.03166 -0.04772 0.03184 -0.02030 -0.04772 0.03744 -0.03875 0.00663 0.03744 -0.03875 -0.00009 0.03744 -0.04390 -0.00009 -0.04062 -0.06137 -0.02958 -0.04062 -0.06714 -0.03042 -0.04062 -0.06336 -0.02549 0.04379 -0.03377 0.01003 0.04379 -0.01760 0.01003 0.04379 -0.02763 0.02115 -0.02506 -0.04539 -0.05026 -0.02667 -0.04193 -0.07020 -0.02667 -0.04193 -0.05026 -0.04379 -0.02106 -0.03025 -0.04379 -0.01615 -0.02537 -0.04379 -0.01615 -0.03458 -0.04379 -0.01615 0.03078 -0.03744 -0.01877 0.02930 -0.03744 -0.01525 0.03128 -0.02754 -0.00629 -0.04772 -0.01821 -0.01216 -0.04772 -0.02474 -0.00356 -0.04772 -0.02818 -0.02690 -0.05026 -0.02730 -0.02319 -0.07020 -0.02730 -0.02319 -0.05026 -0.02667 -0.04193 -0.05026 -0.02780 -0.03828 -0.07020 -0.02780 -0.03828 -0.05026 0.04062 -0.03377 -0.02720 0.04062 -0.04123 -0.03025 0.04062 -0.03377 -0.03502 -0.02920 -0.03166 -0.07020 -0.03184 -0.04302 -0.07020 -0.03963 -0.03166 -0.07020 -0.03744 0.01549 0.01419 -0.03744 0.02813 0.02073 -0.03744 0.02554 0.02383 -0.02730 -0.02319 -0.05026 -0.02593 -0.01963 -0.07020 -0.02593 -0.01963 -0.05026 0.03744 -0.00575 0.01003 0.03744 0.00593 -0.00009 0.03744 -0.00575 -0.00009 -0.03744 -0.02067 0.00304 -0.03744 -0.02763 0.02115 -0.03744 -0.06336 -0.02549 0.03744 -0.05978 -0.02081 0.04379 -0.06011 -0.02125 0.03744 -0.05166 -0.01021 0.04062 -0.01615 -0.03502 0.04379 -0.03377 -0.03502 0.04062 -0.06937 -0.03502 0.01618 -0.00809 -0.05026 0.01618 -0.00809 -0.07020 0.01917 -0.01046 -0.07020 0.03744 0.01076 0.03317 0.03744 0.00593 0.01003 0.03744 0.00699 0.03415 0.03744 -0.05978 -0.02081 0.03744 -0.05166 -0.01021 0.03744 -0.03875 -0.02081 -0.04062 -0.03377 -0.02549 -0.04062 -0.03377 -0.03355 -0.04062 -0.02679 -0.03025 -0.02920 -0.03166 -0.07020 -0.03963 -0.03166 -0.07020 -0.03213 -0.02022 -0.07020 0.00000 0.00402 -0.07020 0.01136 0.00018 -0.07020 0.00000 -0.00246 -0.07020 0.03744 0.03497 -0.00009 0.03744 0.01265 -0.00444 0.03744 0.00593 -0.00009 0.02824 -0.03166 -0.04772 0.03154 -0.04299 -0.04772 0.03738 -0.03166 -0.04772 0.03744 -0.06336 -0.02549 0.03744 -0.05978 -0.02081 0.03744 -0.03875 -0.02549 -0.03744 0.01059 0.01809 -0.03744 0.01938 0.02902 -0.03744 0.01590 0.03105 0.02754 -0.00629 -0.04772 0.02073 -0.00342 -0.04772 0.02073 -0.01488 -0.04772 -0.03814 -0.04262 -0.07020 -0.03901 -0.03896 -0.06359 -0.03913 -0.03829 -0.07020 -0.03689 -0.03806 -0.04772 -0.03628 -0.04092 -0.04032 -0.03592 -0.04223 -0.04772 -0.04379 -0.05139 -0.03458 -0.04379 -0.05630 -0.03025 -0.04379 -0.05139 -0.02537 -0.02964 -0.05805 -0.07020 -0.03166 -0.05559 -0.06359 -0.03240 -0.05457 -0.07020 0.04379 -0.01269 -0.00009 0.04379 -0.01115 -0.00433 0.04379 -0.00295 -0.00009 -0.03913 -0.03829 -0.07020 -0.03952 -0.03532 -0.06359 -0.03963 -0.03388 -0.07020 0.02730 -0.02319 -0.05026 0.02818 -0.02690 -0.07020 0.02818 -0.02690 -0.05026 -0.03744 -0.01041 0.01809 -0.03744 -0.01525 0.03128 -0.03744 -0.01877 0.02930 0.00381 -0.05998 -0.05026 0.00000 -0.06024 -0.07020 0.00000 -0.06024 -0.05026 -0.03476 -0.05081 -0.07020 -0.03552 -0.04936 -0.06359 -0.03668 -0.04681 -0.07020 0.03744 -0.01218 0.03260 0.03744 -0.00575 0.01003 0.03744 -0.01575 0.03103 -0.00569 -0.00365 -0.05026 -0.00191 -0.00314 -0.07020 -0.00191 -0.00314 -0.05026 0.04379 0.03465 0.00494 0.04379 0.01433 0.00666 0.04379 0.03500 0.00107 0.00000 -0.06976 -0.04772 -0.01276 -0.06490 -0.04772 -0.02474 -0.06976 -0.04772 0.04379 -0.00295 -0.00009 0.04379 -0.01072 0.00426 0.04379 -0.01269 -0.00009 -0.04379 0.02348 0.00646 -0.04379 0.03215 0.01376 -0.04379 0.03354 0.00997 -0.04379 0.02237 -0.00977 -0.04379 0.03360 -0.00993 -0.04379 0.03224 -0.01373 0.02857 -0.03070 -0.05026 0.02853 -0.03166 -0.07020 0.02844 -0.03452 -0.05026 0.01116 -0.05797 -0.05026 0.00755 -0.05922 -0.07020 0.00755 -0.05922 -0.05026 -0.03744 0.01901 0.00902 -0.03744 0.03215 0.01376 -0.03744 0.03034 0.01736 0.04379 -0.03377 -0.01021 0.04379 -0.03377 -0.02125 0.04379 -0.01760 -0.01021 -0.03744 0.01901 -0.00920 -0.03744 0.03046 -0.01735 -0.03744 0.03224 -0.01373 0.03744 -0.01218 0.03260 0.03744 -0.00575 0.03430 0.03744 -0.00575 0.01003 -0.03744 0.02086 0.00304 -0.03744 0.03495 0.00204 -0.03744 0.03447 0.00604 0.03744 -0.06137 -0.02958 0.03744 -0.06714 -0.03042 0.03744 -0.06336 -0.02549 0.03744 -0.00076 0.03482 0.03744 0.00009 0.01595 0.03744 -0.00464 0.03451 0.04379 0.00451 -0.00009 0.04379 -0.00295 -0.00009 0.04379 -0.00295 -0.01021 0.00000 0.00449 -0.04772 -0.01136 0.00018 -0.04772 0.00000 -0.00342 -0.04772 -0.03744 -0.04304 -0.02898 -0.03744 -0.03377 -0.02549 -0.03744 -0.06336 -0.02549 0.00381 -0.05998 -0.05026 0.00381 -0.05998 -0.07020 0.00000 -0.06024 -0.07020 0.02279 -0.04552 -0.04772 0.02073 -0.05239 -0.04772 0.02824 -0.05239 -0.04772 0.04379 -0.01760 -0.00009 0.04379 -0.03377 -0.00009 0.04379 -0.03377 -0.01021 0.04379 -0.05139 -0.02125 0.04379 -0.04258 -0.02636 0.04379 -0.03377 -0.02125 -0.01618 -0.00809 -0.05026 -0.01289 -0.00615 -0.07020 -0.01289 -0.00615 -0.05026 0.02474 -0.05990 -0.04772 0.02073 -0.06976 -0.04772 0.02474 -0.06976 -0.04772 -0.01476 -0.06349 -0.04772 -0.02474 -0.05990 -0.04772 -0.02474 -0.06976 -0.04772 0.03744 -0.03377 -0.02549 0.03744 -0.05974 -0.02898 0.03744 -0.06336 -0.02549 -0.02169 -0.06085 -0.07020 -0.01476 -0.06289 -0.07020 -0.02169 -0.06483 -0.07020 -0.03744 0.01318 0.01633 -0.03744 0.02554 0.02383 -0.03744 0.02261 0.02660 -0.01116 -0.05797 -0.05026 -0.01457 -0.05625 -0.07020 -0.01457 -0.05625 -0.05026 -0.01111 -0.06976 -0.07020 -0.01430 -0.06868 -0.06359 -0.01530 -0.06828 -0.07020 0.01457 -0.05625 -0.05026 0.01457 -0.05625 -0.07020 0.01116 -0.05797 -0.07020 0.04379 -0.01411 0.00621 0.04379 -0.01760 0.01003 0.04379 -0.01760 -0.00009 0.02754 -0.05703 -0.04772 0.02073 -0.05239 -0.04772 0.02474 -0.05976 -0.04772 0.02844 -0.03452 -0.05026 0.02844 -0.03452 -0.07020 0.02780 -0.03828 -0.07020 -0.03744 0.02570 -0.02384 -0.03744 0.02826 -0.02073 -0.03744 0.01744 -0.01192 0.00000 -0.00246 -0.07020 -0.01134 -0.00012 -0.07020 0.00000 0.00402 -0.07020 0.04379 -0.01269 -0.02125 0.04379 -0.01269 -0.01021 0.04379 -0.01760 -0.02125 0.04379 0.03491 -0.00283 0.04379 0.01429 -0.00640 0.04379 0.03439 -0.00669 -0.03744 0.00834 0.03384 -0.03744 0.00438 0.03457 -0.03744 0.00166 0.02085 0.03744 0.02675 0.02248 0.03744 0.00593 0.01003 0.03744 0.02407 0.02530 0.03689 -0.02526 -0.04772 0.03628 -0.02240 -0.04032 0.03592 -0.02108 -0.04772 -0.04379 0.02415 0.00322 -0.04379 0.03447 0.00604 -0.04379 0.03495 0.00204 0.00191 -0.00314 -0.05026 0.00569 -0.00365 -0.07020 0.00569 -0.00365 -0.05026 0.00755 -0.05922 -0.05026 0.00381 -0.05998 -0.07020 0.00381 -0.05998 -0.05026 -0.03184 -0.04302 -0.04772 -0.02824 -0.03166 -0.04772 -0.03535 -0.03166 -0.04772 0.00569 -0.00365 -0.05026 0.00569 -0.00365 -0.07020 0.00938 -0.00466 -0.07020 -0.02169 0.00151 -0.07020 -0.01479 -0.00012 -0.07020 -0.02169 -0.00246 -0.07020 -0.03317 -0.05334 -0.07020 -0.03154 -0.04645 -0.07020 -0.02920 -0.05334 -0.07020 -0.03744 -0.00758 0.01946 -0.03744 -0.01153 0.03284 -0.03744 -0.01525 0.03128 -0.00569 -0.00365 -0.05026 -0.00569 -0.00365 -0.07020 -0.00191 -0.00314 -0.07020 -0.04062 -0.03377 -0.02549 -0.04062 -0.04258 -0.02890 -0.04062 -0.06336 -0.02549 -0.03744 0.02016 -0.00628 -0.03744 0.03224 -0.01373 -0.03744 0.03360 -0.00993 -0.01289 -0.00615 -0.05026 -0.00938 -0.00466 -0.07020 -0.00938 -0.00466 -0.05026 0.02301 -0.04861 -0.05026 0.02301 -0.04861 -0.07020 0.02054 -0.05153 -0.07020 0.04379 -0.06011 -0.02125 0.04062 -0.06336 -0.02549 0.04379 -0.06673 -0.02989 -0.03592 -0.02108 -0.04772 -0.03591 -0.02109 -0.04104 -0.03689 -0.02526 -0.04772 0.04379 -0.05139 -0.02125 0.04379 -0.05139 -0.03458 0.04379 -0.04648 -0.03025 0.03744 -0.01575 0.03103 0.03744 -0.00575 0.01003 0.03744 -0.01912 0.02908 0.03744 -0.05166 -0.01021 0.04379 -0.06011 -0.02125 0.04379 -0.05166 -0.01021 0.02818 -0.02690 -0.05026 0.02857 -0.03070 -0.07020 0.02857 -0.03070 -0.05026 0.02073 -0.00342 -0.04772 0.02474 0.00449 -0.04772 0.02073 0.00449 -0.04772 -0.04379 0.03354 0.00997 -0.04379 0.03447 0.00604 -0.04379 0.02415 0.00322 0.04379 -0.03377 -0.01021 0.04379 -0.05139 -0.01021 0.04379 -0.05139 -0.02125 -0.02920 -0.05334 -0.07020 -0.02301 -0.04861 -0.07020 -0.02169 -0.05334 -0.07020 -0.00381 -0.05998 -0.05026 -0.00381 -0.05998 -0.07020 -0.00755 -0.05922 -0.07020 -0.02301 -0.04861 -0.05026 -0.02054 -0.05153 -0.05026 -0.02169 -0.05018 -0.07020 0.04379 -0.01760 0.01003 0.04379 -0.03377 0.01003 0.04379 -0.03377 -0.00009 0.04379 -0.00295 -0.02125 0.04379 -0.00295 -0.01021 0.04379 -0.01269 -0.02125 -0.04379 0.02438 -0.00009 -0.04379 0.03495 0.00204 -0.04379 0.03496 -0.00200 -0.03744 0.01318 0.01633 -0.03744 0.02261 0.02660 -0.03744 0.01938 0.02902 0.00000 -0.06024 -0.05026 -0.00381 -0.05998 -0.07020 -0.00381 -0.05998 -0.05026 0.01618 -0.00809 -0.05026 0.01917 -0.01046 -0.07020 0.01917 -0.01046 -0.05026 -0.02887 0.00644 -0.05547 0.01111 0.00644 -0.06359 -0.01474 0.00644 -0.06242 0.00938 -0.00466 -0.05026 0.01289 -0.00615 -0.07020 0.01289 -0.00615 -0.05026 -0.02169 -0.01306 -0.07020 -0.02685 -0.00246 -0.07020 -0.02169 -0.00246 -0.07020 0.04379 -0.04390 -0.00009 0.03744 -0.04390 -0.00009 0.04379 -0.05139 -0.00986 0.03744 0.00593 -0.02081 0.03744 0.00593 -0.01021 0.03744 0.03032 -0.01759 0.03744 0.01691 -0.03331 0.03744 0.01161 -0.03049 0.03744 0.02417 -0.02549 0.04379 -0.02763 0.02115 0.03744 -0.02763 0.02115 0.04379 -0.03377 0.01314 0.01771 -0.05409 -0.05026 0.01771 -0.05409 -0.07020 0.01457 -0.05625 -0.07020 0.04379 0.03032 -0.01759 0.04379 0.00781 -0.01021 0.04379 0.00781 -0.02125 0.02667 -0.04193 -0.05026 0.02667 -0.04193 -0.07020 0.02506 -0.04539 -0.07020 -0.04062 -0.06937 -0.03502 -0.04379 -0.05139 -0.03502 -0.04062 -0.03377 -0.03502 0.04379 -0.01760 -0.02125 0.04379 -0.01760 -0.01021 0.04379 -0.03377 -0.02125 0.03744 0.03347 0.01003 0.03744 0.00593 0.01003 0.03744 0.03108 0.01602 0.03744 -0.02763 0.02115 0.03744 -0.00575 0.01003 0.03744 -0.03615 0.01003 -0.04379 0.01667 0.01766 -0.04379 0.02261 0.02660 -0.04379 0.02554 0.02383 -0.03814 -0.02070 -0.07020 -0.03708 -0.01751 -0.06359 -0.03668 -0.01651 -0.07020 0.02183 -0.01321 -0.05026 0.02409 -0.01628 -0.07020 0.02409 -0.01628 -0.05026 0.02054 -0.05153 -0.05026 0.01854 -0.05334 -0.07020 0.01771 -0.05409 -0.05026 0.04379 0.02570 -0.02384 0.04379 0.01412 -0.03093 0.04379 0.01573 -0.03458 0.03744 -0.03875 -0.00009 0.03744 -0.01247 0.00426 0.03744 -0.00575 -0.00009 0.03744 0.02417 -0.02549 0.03744 0.01028 -0.02890 0.03744 -0.03377 -0.02549 0.03744 -0.03875 -0.02081 0.03744 -0.03875 -0.01021 0.03744 -0.00575 -0.02081 0.02593 -0.01963 -0.05026 0.02730 -0.02319 -0.07020 0.02730 -0.02319 -0.05026 -0.04379 -0.02653 0.02243 -0.03744 -0.02763 0.02115 -0.03744 -0.02500 0.02420 0.03744 0.02675 0.02248 0.03744 0.03108 0.01602 0.03744 0.00593 0.01003 0.04379 0.00781 0.01003 0.04379 0.03268 0.01247 0.04379 0.03108 0.01602 -0.04062 -0.04078 -0.02994 -0.04062 -0.03377 -0.03355 -0.04062 -0.03377 -0.02549 0.04379 -0.03377 -0.00009 0.04379 -0.04390 -0.00009 0.04379 -0.05139 -0.00986 0.04062 -0.01615 -0.03355 0.04062 -0.02313 -0.03025 0.04062 -0.01615 -0.02549 -0.04379 0.01667 0.01766 -0.04379 0.01938 0.02902 -0.04379 0.02261 0.02660 -0.01530 -0.06828 -0.07020 -0.01766 -0.06720 -0.06359 -0.01929 -0.06634 -0.07020 0.04379 -0.04390 -0.00009 0.03744 -0.03875 0.00663 0.03744 -0.04390 -0.00009 0.04379 -0.00295 0.01003 0.04379 -0.00904 0.00666 0.04379 -0.00295 -0.00009 -0.02593 -0.01963 -0.05026 -0.02593 -0.01963 -0.07020 -0.02409 -0.01628 -0.07020 -0.00938 -0.00466 -0.05026 -0.00569 -0.00365 -0.07020 -0.00569 -0.00365 -0.05026 0.03744 0.00593 -0.02549 0.04062 0.02417 -0.02549 0.04062 -0.01615 -0.02549 0.03744 -0.04390 -0.00009 0.03744 -0.03875 -0.00009 0.03744 -0.03875 -0.01021 -0.02183 -0.01321 -0.05026 -0.02169 -0.01306 -0.07020 -0.01917 -0.01046 -0.05026 0.02920 -0.05334 -0.07020 0.02920 -0.05850 -0.07020 0.01854 -0.05334 -0.07020 0.03744 0.01076 0.03317 0.03744 0.01785 0.02998 0.03744 0.00593 0.01003 0.04379 -0.03615 0.01003 0.03744 -0.03875 0.00663 0.04379 -0.04390 -0.00009 0.03744 -0.00575 -0.02081 0.03744 -0.00035 -0.01610 0.03744 0.00593 -0.02081 -0.02409 -0.01628 -0.05026 -0.02409 -0.01628 -0.07020 -0.02183 -0.01321 -0.07020 0.04379 0.03497 -0.00009 0.04379 0.01265 0.00426 0.04379 0.00781 -0.00009 0.04379 -0.00295 -0.01021 0.04379 -0.01269 -0.01021 0.04379 -0.01269 -0.02125 0.01457 -0.05625 -0.05026 0.01116 -0.05797 -0.07020 0.01116 -0.05797 -0.05026 0.03744 0.00593 -0.02549 0.03744 -0.00575 -0.02081 0.03744 0.00593 -0.02081 -0.03291 -0.06976 -0.04475 -0.03899 -0.06976 -0.04876 -0.03579 -0.06976 -0.05100 0.02685 -0.00246 -0.07020 0.02183 -0.01321 -0.07020 0.01917 -0.01046 -0.07020 0.04379 -0.01760 -0.00009 0.04379 -0.01760 0.01003 0.04379 -0.03377 -0.00009 0.04379 0.00451 0.01003 0.04379 -0.00295 0.01003 0.04379 -0.00295 -0.00009 -0.03702 -0.03730 -0.03829 -0.03689 -0.03806 -0.04772 -0.03738 -0.03380 -0.04772 0.03744 -0.00575 -0.02549 0.04062 -0.01615 -0.02549 0.03744 -0.03875 -0.02549 -0.04379 -0.02653 -0.02537 -0.04379 -0.01649 -0.01784 -0.04379 -0.01615 -0.02537 -0.02920 -0.05334 -0.07020 -0.02169 -0.05334 -0.07020 -0.02920 -0.05850 -0.07020 0.03744 -0.02763 0.02115 0.03744 -0.02224 0.02676 0.03744 -0.00575 0.01003 0.04379 -0.03377 -0.02125 0.04379 -0.03874 -0.02958 0.04379 -0.03377 -0.03458 0.04379 0.02407 0.02530 0.04379 0.00781 0.01003 0.04379 0.02675 0.02248 -0.00938 -0.00466 -0.05026 -0.00938 -0.00466 -0.07020 -0.00569 -0.00365 -0.07020 -0.04379 -0.00485 0.02369 -0.04379 -0.01153 0.03284 -0.04379 -0.00766 0.03396 -0.02651 -0.00212 -0.07020 -0.02396 -0.00002 -0.06359 -0.02304 0.00065 -0.07020 -0.01116 -0.05797 -0.05026 -0.01116 -0.05797 -0.07020 -0.01457 -0.05625 -0.07020 0.03744 -0.03875 -0.00009 0.03744 -0.01411 -0.00640 0.03744 -0.03875 -0.01021 -0.04062 -0.03377 -0.03331 -0.04062 -0.04123 -0.03025 -0.04062 -0.03377 -0.02549 -0.03689 -0.02526 -0.04772 -0.03688 -0.02526 -0.03871 -0.03738 -0.02952 -0.04772 -0.03744 -0.06714 -0.03042 -0.03744 -0.06147 -0.02979 -0.03744 -0.06336 -0.02549 0.03744 0.02407 0.02530 0.03744 0.00593 0.01003 0.03744 0.01785 0.02998 0.04379 -0.03377 -0.01021 0.04379 -0.03377 -0.00009 0.04379 -0.05139 -0.00986 0.03592 -0.04223 -0.04772 0.03591 -0.04223 -0.04104 0.03689 -0.03806 -0.04772 0.02073 -0.06976 -0.04772 0.01306 -0.06492 -0.04772 0.00000 -0.06976 -0.04772 -0.03668 -0.01651 -0.07020 -0.03561 -0.01413 -0.06359 -0.03476 -0.01251 -0.07020 0.04062 0.01533 -0.03502 0.04062 -0.02472 -0.03159 0.04062 -0.03377 -0.03502 -0.04379 0.00147 -0.03458 -0.04379 -0.00344 -0.03025 -0.04379 0.00147 -0.02537 -0.03744 0.03451 -0.00600 -0.03744 0.03496 -0.00200 -0.03744 0.02109 -0.00009 0.04379 -0.05139 -0.02125 0.04379 -0.05139 -0.01021 0.04379 -0.06011 -0.02125 0.02073 -0.05239 -0.04772 0.01669 -0.05239 -0.04772 0.02073 -0.05990 -0.04772 0.04379 -0.03377 -0.02125 0.04379 -0.02564 -0.02641 0.04379 -0.01760 -0.02125 0.04379 -0.03377 0.01003 0.04379 -0.04390 -0.00009 0.04379 -0.03377 -0.00009 -0.02304 -0.06397 -0.07020 -0.02389 -0.06335 -0.06359 -0.02651 -0.06119 -0.07020 -0.02409 -0.01628 -0.05026 -0.02183 -0.01321 -0.07020 -0.02183 -0.01321 -0.05026 0.03739 -0.03359 -0.03614 0.03739 -0.02972 -0.03614 0.03738 -0.03380 -0.04772 0.04379 -0.03377 -0.03458 0.04379 -0.02886 -0.03025 0.04379 -0.03377 -0.02125 0.04379 -0.01269 -0.01021 0.04379 -0.01760 -0.01021 0.04379 -0.01760 -0.02125 -0.04379 0.00823 0.02279 -0.04379 0.00834 0.03384 -0.04379 0.01220 0.03267 -0.01771 -0.05409 -0.05026 -0.01854 -0.05334 -0.07020 -0.02054 -0.05153 -0.05026 -0.02672 -0.06101 -0.06359 -0.03471 -0.06976 -0.05173 -0.02931 -0.05841 -0.06359 0.04379 0.00781 -0.00009 0.04379 0.01222 -0.00433 0.04379 0.03497 -0.00009 -0.02474 -0.06976 -0.04772 -0.02355 -0.06976 -0.05848 0.00000 -0.06976 -0.04772 0.04062 -0.03377 -0.03502 0.04062 -0.02629 -0.03049 0.04062 -0.03377 -0.02720 -0.03476 -0.01251 -0.07020 -0.03382 -0.01090 -0.06359 -0.03240 -0.00874 -0.07020 0.02073 0.00449 -0.04772 0.01476 0.00018 -0.04772 0.02073 -0.00342 -0.04772 -0.04192 -0.06736 -0.04822 -0.04344 -0.06976 -0.03925 -0.04302 0.00993 -0.04172 0.04379 -0.00295 -0.01021 0.04379 -0.00295 -0.00009 0.04379 -0.00908 -0.00640 0.03744 -0.04123 -0.03025 0.03744 -0.03377 -0.02549 0.03744 -0.03377 -0.03331 0.03744 -0.03377 -0.03331 0.03744 -0.03377 -0.02549 0.03744 -0.02629 -0.03002 0.02940 -0.05832 -0.06359 0.03674 -0.06976 -0.05035 0.02680 -0.06093 -0.06359 0.04379 -0.03377 0.01314 0.03744 -0.02763 0.02115 0.03744 -0.03615 0.01003 0.02183 -0.01321 -0.05026 0.02183 -0.01321 -0.07020 0.02409 -0.01628 -0.07020 -0.04379 -0.05139 -0.00986 -0.03744 -0.06336 -0.02549 -0.03744 -0.02763 0.02115 0.03744 0.00313 0.03470 0.03744 0.00053 0.01591 0.03744 -0.00076 0.03482 0.02844 -0.03452 -0.05026 0.02780 -0.03828 -0.07020 0.02780 -0.03828 -0.05026 0.04062 0.01669 -0.03355 0.04062 0.01208 -0.03057 0.04062 0.02417 -0.02549 -0.02301 -0.04861 -0.05026 -0.02506 -0.04539 -0.07020 -0.02506 -0.04539 -0.05026 0.01111 0.00644 -0.07020 0.01432 0.00536 -0.06359 0.01530 0.00496 -0.07020 0.02780 -0.03828 -0.05026 0.02780 -0.03828 -0.07020 0.02667 -0.04193 -0.07020 0.02073 -0.05990 -0.04772 0.01479 -0.06319 -0.04772 0.02073 -0.06976 -0.04772 -0.04062 0.01691 -0.03331 -0.04062 0.01161 -0.03049 -0.04062 0.02417 -0.02549 -0.04379 -0.02203 0.02693 -0.04379 -0.01615 0.01793 -0.04379 -0.02500 0.02420 0.03744 -0.02224 0.02676 0.03744 -0.01912 0.02908 0.03744 -0.00575 0.01003 -0.03744 -0.03377 -0.03331 -0.03744 -0.03377 -0.02549 -0.03744 -0.04125 -0.03002 0.01929 0.00302 -0.07020 0.02092 0.00207 -0.06359 0.02304 0.00065 -0.07020 0.02667 -0.04193 -0.05026 0.02506 -0.04539 -0.07020 0.02506 -0.04539 -0.05026 0.03744 0.03439 -0.00669 0.03744 0.01433 -0.00684 0.03744 0.03491 -0.00283 0.02304 0.00065 -0.07020 0.02396 -0.00002 -0.06359 0.02651 -0.00212 -0.07020 0.00938 -0.00466 -0.05026 0.00938 -0.00466 -0.07020 0.01289 -0.00615 -0.07020 -0.04379 -0.05139 -0.00986 -0.04379 -0.05139 -0.02537 -0.04379 -0.06327 -0.02537 0.03744 -0.00575 -0.02549 0.03744 -0.00575 -0.02081 0.03744 0.00593 -0.02549 -0.00191 -0.00314 -0.05026 0.00000 -0.00314 -0.07020 0.00191 -0.00314 -0.05026 0.02920 -0.03166 -0.07020 0.03154 -0.02032 -0.07020 0.03648 -0.03166 -0.07020 0.02888 -0.06976 -0.05546 0.03321 -0.06976 -0.05274 0.02909 -0.06976 -0.04695 -0.03963 -0.02944 -0.07020 -0.03954 -0.02828 -0.06359 -0.03913 -0.02503 -0.07020 -0.01917 -0.01046 -0.05026 -0.01618 -0.00809 -0.07020 -0.01618 -0.00809 -0.05026 0.02964 -0.00527 -0.07020 0.03175 -0.00785 -0.06359 0.03240 -0.00874 -0.07020 0.03744 -0.00575 -0.01021 0.03744 -0.00904 -0.00684 0.03744 -0.00575 -0.00009 0.01289 -0.00615 -0.05026 0.01289 -0.00615 -0.07020 0.01618 -0.00809 -0.07020 0.03240 -0.00874 -0.07020 0.03382 -0.01090 -0.06359 0.03476 -0.01251 -0.07020 -0.02857 -0.03070 -0.05026 -0.02818 -0.02690 -0.07020 -0.02818 -0.02690 -0.05026 0.03708 -0.01751 -0.06359 0.03814 -0.02070 -0.07020 0.03668 -0.01651 -0.07020 -0.04062 -0.06714 -0.03042 -0.04062 -0.06192 -0.02963 -0.04062 -0.06336 -0.02549 -0.04379 0.02348 -0.00664 -0.04379 0.03451 -0.00600 -0.04379 0.03360 -0.00993 -0.02667 -0.04193 -0.05026 -0.02667 -0.04193 -0.07020 -0.02780 -0.03828 -0.07020 0.03561 -0.01413 -0.06359 0.03648 -0.01608 -0.07020 0.03476 -0.01251 -0.07020 0.04379 -0.01269 -0.02125 0.04379 -0.01760 -0.02125 0.04379 -0.01760 -0.03458 0.04379 0.00451 -0.02125 0.04379 0.00053 -0.01610 0.04379 -0.00295 -0.02125 -0.04062 -0.03377 -0.02549 -0.03744 0.02417 -0.02549 -0.03744 -0.06336 -0.02549 0.04379 -0.00295 0.01003 0.04379 -0.01218 0.03260 0.04379 -0.01269 0.01003 0.03814 -0.02070 -0.07020 0.03906 -0.02462 -0.06359 0.03913 -0.02503 -0.07020 0.04379 0.00451 -0.00009 0.04379 -0.00295 -0.01021 0.04379 0.00451 -0.01021 0.02730 -0.02319 -0.05026 0.02730 -0.02319 -0.07020 0.02818 -0.02690 -0.07020 0.03913 -0.02503 -0.07020 0.03954 -0.02828 -0.06359 0.03963 -0.02944 -0.07020 0.03744 -0.04390 -0.00009 0.03744 -0.03875 -0.01021 0.03744 -0.05166 -0.01021 -0.02506 -0.04539 -0.05026 -0.02506 -0.04539 -0.07020 -0.02667 -0.04193 -0.07020 0.00000 -0.06085 -0.07020 0.01134 -0.06319 -0.07020 0.00000 -0.06976 -0.07020 -0.03739 -0.02972 -0.03614 -0.03739 -0.03359 -0.03614 -0.03738 -0.02952 -0.04772 0.02593 -0.01963 -0.05026 0.02593 -0.01963 -0.07020 0.02730 -0.02319 -0.07020 0.03954 -0.03504 -0.06359 0.03913 -0.03829 -0.07020 0.03963 -0.03388 -0.07020 0.04379 -0.01269 -0.03458 0.04379 -0.01269 -0.02125 0.04379 -0.01760 -0.03458 0.02506 -0.04539 -0.05026 0.02301 -0.04861 -0.07020 0.02301 -0.04861 -0.05026 -0.04379 -0.00157 0.02414 -0.04379 -0.00368 0.03463 -0.04379 0.00035 0.03483 0.02780 -0.03828 -0.05026 0.02667 -0.04193 -0.07020 0.02667 -0.04193 -0.05026 0.03913 -0.03829 -0.07020 0.03824 -0.04230 -0.06359 0.03814 -0.04262 -0.07020 -0.03744 0.03354 0.00997 -0.03744 0.03215 0.01376 -0.03744 0.01901 0.00902 -0.02857 -0.03070 -0.05026 -0.02857 -0.03070 -0.07020 -0.02818 -0.02690 -0.07020 0.03814 -0.04262 -0.07020 0.03708 -0.04580 -0.06359 0.03668 -0.04681 -0.07020 0.02073 -0.00342 -0.04772 0.02474 -0.00342 -0.04772 0.02474 0.00449 -0.04772 -0.03913 -0.02503 -0.07020 -0.03824 -0.02102 -0.06359 -0.03814 -0.02070 -0.07020 -0.01432 0.00536 -0.06359 -0.01111 0.00644 -0.07020 -0.01530 0.00496 -0.07020 0.03648 -0.04724 -0.07020 0.03561 -0.04919 -0.06359 0.03476 -0.05081 -0.07020 -0.03744 0.01744 0.01174 -0.03744 0.03034 0.01736 -0.03744 0.02813 0.02073 0.04379 -0.03377 -0.01021 0.04379 -0.01760 -0.01021 0.04379 -0.01760 -0.00009 0.00000 -0.06976 -0.07020 0.01111 -0.06976 -0.06359 -0.01111 -0.06976 -0.06359 -0.04379 -0.00157 0.02414 -0.04379 -0.00766 0.03396 -0.04379 -0.00368 0.03463 0.04379 0.00451 -0.03458 0.04379 0.00451 -0.02125 0.04379 -0.00295 -0.03458 0.01289 -0.00615 -0.05026 0.01618 -0.00809 -0.07020 0.01618 -0.00809 -0.05026 0.03240 -0.05457 -0.07020 0.03175 -0.05547 -0.06359 0.02964 -0.05805 -0.07020 -0.01618 -0.00809 -0.05026 -0.01618 -0.00809 -0.07020 -0.01289 -0.00615 -0.07020 -0.04379 -0.02763 0.02115 -0.04379 -0.02653 -0.02537 -0.04379 -0.05139 -0.02537 0.03744 -0.00575 -0.00009 0.03744 -0.01204 -0.00433 0.03744 -0.03875 -0.00009 0.01917 -0.01046 -0.05026 0.01917 -0.01046 -0.07020 0.02183 -0.01321 -0.07020 0.03744 -0.03875 0.00663 0.03744 -0.01414 0.00666 0.03744 -0.03875 -0.00009 0.04379 0.00781 0.01003 0.04379 0.03108 0.01602 0.04379 0.02909 0.01937 -0.03744 -0.02631 -0.03025 -0.03744 -0.03377 -0.02549 -0.03744 -0.03377 -0.03331 0.00569 -0.00365 -0.05026 0.00938 -0.00466 -0.07020 0.00938 -0.00466 -0.05026 0.02651 -0.06119 -0.07020 0.02396 -0.06330 -0.06359 0.02304 -0.06397 -0.07020 -0.02474 -0.00342 -0.04772 -0.01479 -0.00012 -0.04772 -0.02474 0.00449 -0.04772 -0.03240 -0.00874 -0.07020 -0.03175 -0.00785 -0.06359 -0.02964 -0.00527 -0.07020 0.02304 -0.06397 -0.07020 0.02092 -0.06539 -0.06359 0.01929 -0.06634 -0.07020 -0.02824 -0.03166 -0.04772 -0.03154 -0.02032 -0.04772 -0.03535 -0.03166 -0.04772 0.04062 0.01533 -0.03502 0.04379 0.00451 -0.03502 0.04062 -0.01615 -0.03502 0.01929 -0.06634 -0.07020 0.01770 -0.06718 -0.06359 0.01530 -0.06828 -0.07020 -0.02301 -0.04861 -0.05026 -0.02301 -0.04861 -0.07020 -0.02506 -0.04539 -0.07020 0.01432 -0.06867 -0.06359 0.01111 -0.06976 -0.07020 0.01530 -0.06828 -0.07020 0.02680 -0.00238 -0.06359 0.03507 0.00665 -0.05134 0.02940 -0.00500 -0.06359 0.00000 -0.06976 -0.07020 -0.01111 -0.06976 -0.06359 -0.01111 -0.06976 -0.07020 -0.03744 0.00166 0.02085 -0.03744 0.00438 0.03457 -0.03744 0.00035 0.03483 -0.04379 0.01893 0.01524 -0.04379 0.02554 0.02383 -0.04379 0.02813 0.02073 0.03689 -0.03806 -0.04772 0.03688 -0.03806 -0.03871 0.03738 -0.03380 -0.04772 -0.04344 -0.06976 -0.03925 -0.04223 -0.06976 -0.04640 -0.03574 -0.06976 -0.04137 -0.04379 0.00503 0.02369 -0.04379 0.00438 0.03457 -0.04379 0.00834 0.03384 0.00000 -0.00342 -0.04772 0.01134 -0.00012 -0.04772 0.00000 0.00449 -0.04772 0.04062 -0.03377 -0.03502 0.04379 -0.06937 -0.03502 0.04379 0.01533 -0.03502 -0.02780 -0.03828 -0.05026 -0.02844 -0.03452 -0.07020 -0.02844 -0.03452 -0.05026 -0.03744 0.01744 -0.01192 -0.03744 0.02826 -0.02073 -0.03744 0.03046 -0.01735 -0.04379 0.00147 -0.03502 -0.04062 0.01533 -0.03502 -0.04062 -0.03377 -0.03502 -0.04379 0.00147 0.03476 -0.03744 0.00035 0.03483 -0.03744 0.00438 0.03457 0.04379 0.01076 0.03317 0.04379 0.00781 0.01003 0.04379 0.01785 0.02998 0.01405 -0.06976 -0.06267 0.02909 -0.06976 -0.04695 -0.01111 -0.06976 -0.06359 0.04379 -0.00076 0.03482 0.04379 0.00009 0.01595 0.04379 0.00313 0.03470 -0.03744 -0.00148 0.02085 -0.03744 0.00035 0.03483 -0.03744 -0.00368 0.03463 -0.04379 0.02084 0.01253 -0.04379 0.02813 0.02073 -0.04379 0.03034 0.01736 0.04344 -0.06976 -0.03925 0.03668 -0.06976 -0.03936 0.04223 -0.06976 -0.04640 0.04379 -0.00295 0.01003 0.04379 -0.00847 0.03377 0.04379 -0.01218 0.03260 0.03744 0.00593 -0.00009 0.03744 0.01222 0.00414 0.03744 0.03497 -0.00009 0.04062 0.02259 -0.02720 0.04062 0.01161 -0.03049 0.04062 0.01533 -0.03502 -0.04062 -0.03377 -0.03502 -0.04379 0.01533 -0.03502 -0.04379 -0.06937 -0.03502 0.04379 0.00781 -0.02125 0.04379 0.01096 -0.02641 0.04379 0.02785 -0.02125 0.04223 -0.06976 -0.04640 0.04293 0.00963 -0.04225 0.04344 -0.06976 -0.03925 0.00755 -0.05922 -0.05026 0.00755 -0.05922 -0.07020 0.00381 -0.05998 -0.07020 -0.01457 -0.05625 -0.05026 -0.01771 -0.05409 -0.07020 -0.01771 -0.05409 -0.05026 0.04379 -0.05139 -0.00986 0.03744 -0.04390 -0.00009 0.03744 -0.05166 -0.01021 -0.01289 -0.00615 -0.05026 -0.01289 -0.00615 -0.07020 -0.00938 -0.00466 -0.07020 0.01116 -0.05797 -0.05026 0.01116 -0.05797 -0.07020 0.00755 -0.05922 -0.07020 0.02818 -0.02690 -0.05026 0.02818 -0.02690 -0.07020 0.02857 -0.03070 -0.07020 0.00000 0.00644 -0.07020 0.01111 0.00644 -0.06359 0.01111 0.00644 -0.07020 -0.01457 -0.05625 -0.05026 -0.01457 -0.05625 -0.07020 -0.01771 -0.05409 -0.07020 0.04379 -0.01269 -0.02125 0.04379 -0.00802 -0.02641 0.04379 -0.00295 -0.02125 0.00000 -0.06976 -0.07020 -0.01136 -0.06349 -0.07020 0.00000 -0.06085 -0.07020 0.03744 -0.00575 0.01003 0.03744 -0.00575 -0.00009 0.03744 -0.00908 0.00621 0.00000 0.00644 -0.07020 -0.01111 0.00644 -0.07020 -0.01111 0.00644 -0.06359 -0.03744 0.02016 0.00610 -0.03744 0.03447 0.00604 -0.03744 0.03354 0.00997 -0.01111 -0.06976 -0.07020 -0.01220 -0.06469 -0.07020 0.00000 -0.06976 -0.07020 0.02685 -0.00246 -0.07020 0.01917 -0.01046 -0.07020 0.01618 -0.00809 -0.07020 -0.03744 -0.03377 -0.02549 -0.03744 -0.02496 -0.02890 -0.03744 0.02417 -0.02549 -0.04379 0.02415 -0.00340 -0.04379 0.03496 -0.00200 -0.04379 0.03451 -0.00600 -0.04379 0.02084 -0.01271 -0.04379 0.03224 -0.01373 -0.04379 0.03046 -0.01735 0.04379 -0.01269 0.01003 0.04379 -0.01575 0.03103 0.04379 -0.01760 0.01003 -0.03744 0.00166 -0.02103 -0.03744 -0.06336 -0.02549 -0.03744 0.02417 -0.02549 0.02754 -0.05703 -0.04772 0.02824 -0.05239 -0.04772 0.02073 -0.05239 -0.04772 0.04379 0.02675 0.02248 0.04379 0.00781 0.01003 0.04379 0.02909 0.01937 -0.01111 0.00644 -0.06359 0.01111 0.00644 -0.06359 0.00000 0.00644 -0.07020 0.03744 0.03500 0.00107 0.03744 0.01429 0.00621 0.03744 0.03465 0.00494 -0.03744 0.02086 -0.00322 -0.03744 0.03360 -0.00993 -0.03744 0.03451 -0.00600 0.01771 -0.05409 -0.05026 0.01457 -0.05625 -0.07020 0.01457 -0.05625 -0.05026 0.02409 -0.01628 -0.05026 0.02409 -0.01628 -0.07020 0.02593 -0.01963 -0.07020 0.03744 -0.00575 0.03430 0.03744 -0.00230 0.01427 0.03744 -0.00575 0.01003 -0.04062 -0.03377 -0.02549 -0.04062 -0.02629 -0.03002 -0.04062 -0.03377 -0.03331 0.03744 0.00593 -0.01021 0.03744 0.03208 -0.01411 0.03744 0.03032 -0.01759 0.04062 -0.06336 -0.02549 0.04062 -0.06179 -0.02934 0.04062 -0.06714 -0.03042 -0.04379 0.01410 0.01975 -0.04379 0.01590 0.03105 -0.04379 0.01938 0.02902 0.02409 -0.01628 -0.05026 0.02593 -0.01963 -0.07020 0.02593 -0.01963 -0.05026 0.04379 0.00451 -0.02125 0.04379 -0.00295 -0.02125 0.04379 -0.00295 -0.03458 0.03744 0.00260 -0.01403 0.03744 0.00593 -0.01021 0.03744 0.00593 -0.02081 0.03744 0.00593 0.01003 0.03744 0.00923 0.00666 0.03744 0.00593 -0.00009 0.04379 0.03208 -0.01411 0.04379 0.03350 -0.01021 0.04379 0.00781 -0.01021 0.01917 -0.01046 -0.05026 0.02183 -0.01321 -0.07020 0.02183 -0.01321 -0.05026 -0.03744 -0.01300 0.01633 -0.03744 -0.01877 0.02930 -0.03744 -0.02203 0.02693 -0.03744 0.00476 0.02038 -0.03744 0.01220 0.03267 -0.03744 0.00834 0.03384 0.03744 -0.00575 -0.00009 0.03744 0.00593 -0.01021 0.03744 -0.00575 -0.01021 0.03447 -0.06976 -0.04318 0.03674 -0.06976 -0.05035 0.04045 -0.06976 -0.04771 -0.04379 -0.02763 0.02115 -0.04379 -0.05139 -0.02537 -0.04379 -0.05139 -0.00986 -0.00755 -0.05922 -0.05026 -0.01116 -0.05797 -0.07020 -0.01116 -0.05797 -0.05026 -0.04379 -0.01615 -0.03458 -0.04379 -0.01615 -0.02537 -0.04379 -0.01118 -0.02958 0.03744 -0.00575 -0.02549 0.03744 -0.03875 -0.02081 0.03744 -0.00575 -0.02081 -0.01917 -0.01046 -0.05026 -0.01917 -0.01046 -0.07020 -0.01618 -0.00809 -0.07020 -0.04379 0.01127 0.02147 -0.04379 0.01220 0.03267 -0.04379 0.01590 0.03105 -0.00381 -0.05998 -0.05026 -0.00755 -0.05922 -0.07020 -0.00755 -0.05922 -0.05026 0.03744 0.00593 -0.02549 0.03744 0.00593 -0.02081 0.03744 0.02570 -0.02384 -0.04062 0.02417 -0.02549 -0.04062 0.01211 -0.03025 -0.04062 0.01669 -0.03355 0.03744 0.00593 -0.00009 0.03744 0.00927 -0.00640 0.03744 0.00593 -0.01021 0.02474 -0.05990 -0.04772 0.02073 -0.05990 -0.04772 0.02073 -0.06976 -0.04772 0.04191 -0.06721 -0.04832 0.04136 -0.06269 -0.05157 0.04293 0.00963 -0.04225 0.04379 -0.01760 -0.03458 0.04379 -0.01760 -0.02125 0.04379 -0.02112 -0.02958 -0.02780 -0.03828 -0.05026 -0.02780 -0.03828 -0.07020 -0.02844 -0.03452 -0.07020 0.00000 -0.05990 -0.04772 -0.01134 -0.06319 -0.04772 0.00000 -0.06976 -0.04772 -0.03744 -0.00458 0.02038 -0.03744 -0.00368 0.03463 -0.03744 -0.00766 0.03396 -0.04379 0.02237 0.00959 -0.04379 0.03034 0.01736 -0.04379 0.03215 0.01376 -0.04379 0.01893 -0.01542 -0.04379 0.03046 -0.01735 -0.04379 0.02826 -0.02073 0.01111 -0.06976 -0.07020 0.01111 -0.06976 -0.06359 0.00000 -0.06976 -0.07020 -0.03744 0.00776 0.01946 -0.03744 0.01590 0.03105 -0.03744 0.01220 0.03267 0.04379 0.03388 0.00876 0.04379 0.01433 0.00666 0.04379 0.03465 0.00494 -0.03668 -0.04681 -0.07020 -0.03700 -0.04601 -0.06359 -0.03814 -0.04262 -0.07020 -0.04379 -0.02203 0.02693 -0.04379 -0.01615 0.03078 -0.04379 -0.01615 0.01793 0.04379 -0.00464 0.03451 0.04379 -0.00847 0.03377 0.04379 -0.00295 0.01003 0.04062 -0.01615 -0.02549 0.04062 -0.00914 -0.02994 0.04062 -0.01615 -0.03355 0.00000 -0.06976 -0.04772 0.01136 -0.06349 -0.04772 0.00000 -0.05990 -0.04772 0.03744 -0.03875 -0.02549 0.03744 -0.03875 -0.02081 0.03744 -0.00575 -0.02549 0.04379 -0.01760 -0.00009 0.04379 -0.01760 -0.01021 0.04379 -0.01414 -0.00684 -0.03744 0.02417 -0.02549 -0.03744 0.01164 -0.03025 -0.03744 0.01691 -0.03331 0.03184 -0.04302 -0.07020 0.02920 -0.03166 -0.07020 0.03648 -0.03166 -0.07020 -0.03744 0.02109 -0.00009 -0.03744 0.03496 -0.00200 -0.03744 0.03495 0.00204 -0.04379 -0.00804 0.02279 -0.04379 -0.01525 0.03128 -0.04379 -0.01153 0.03284 0.03702 -0.02601 -0.03829 0.03689 -0.02526 -0.04772 0.03738 -0.02952 -0.04772 0.04379 0.00451 0.01003 0.04379 -0.00295 -0.00009 0.04379 0.00451 -0.00009 0.02920 -0.05334 -0.07020 0.03124 -0.04642 -0.07020 0.03317 -0.05334 -0.07020 0.03744 -0.03875 -0.02081 0.03744 -0.05166 -0.01021 0.03744 -0.03875 -0.01021 -0.04379 0.00147 -0.02537 -0.04379 0.00644 -0.02958 -0.04379 0.00147 -0.03458 0.04379 -0.03615 0.01003 0.03744 -0.03615 0.01003 0.03744 -0.03875 0.00663 -0.02920 -0.05850 -0.07020 -0.02169 -0.05334 -0.07020 -0.02169 -0.06085 -0.07020 0.03744 -0.00575 -0.02081 0.03744 -0.03875 -0.01021 0.03744 -0.00575 -0.01021 -0.02940 -0.00500 -0.06359 -0.03544 0.00668 -0.05107 -0.02680 -0.00238 -0.06359 0.04062 -0.03377 -0.03502 0.04062 -0.05974 -0.03153 0.04062 -0.06937 -0.03502 0.03744 -0.00575 0.01003 0.03744 0.00593 0.01003 0.03744 0.00593 -0.00009 0.03744 -0.05978 -0.02081 0.04062 -0.06336 -0.02549 0.04379 -0.06011 -0.02125 -0.02730 -0.02319 -0.05026 -0.02730 -0.02319 -0.07020 -0.02593 -0.01963 -0.07020 -0.03744 -0.01726 0.01174 -0.03744 -0.02500 0.02420 -0.03744 -0.02763 0.02115 0.04379 -0.05636 -0.02958 0.04379 -0.05139 -0.03458 0.04379 -0.05139 -0.02125 -0.03744 -0.02763 0.02115 -0.04379 -0.02763 0.02115 -0.04379 -0.05139 -0.00986 0.02506 -0.04539 -0.05026 0.02506 -0.04539 -0.07020 0.02301 -0.04861 -0.07020 0.02301 -0.04861 -0.05026 0.02054 -0.05153 -0.07020 0.02054 -0.05153 -0.05026 0.02474 -0.05976 -0.04772 0.02073 -0.05239 -0.04772 0.02073 -0.05990 -0.04772 -0.02818 -0.02690 -0.05026 -0.02818 -0.02690 -0.07020 -0.02730 -0.02319 -0.07020 -0.01136 -0.06976 -0.06352 0.02073 -0.06976 -0.04772 0.00000 -0.06976 -0.04772 0.04379 0.03208 -0.01411 0.04379 0.00781 -0.01021 0.04379 0.03032 -0.01759</float_array>
					<technique_common>
						<accessor count="1305" source="#Mesh-Geometry-Position-array" stride="3">
							<param type="float" name="X"></param>
							<param type="float" name="Y"></param>
							<param type="float" name="Z"></param>
						</accessor>
					</technique_common>
				</source>
				<source id="Mesh-Geometry-Normals">
					<float_array count="1305" id="Mesh-Geometry-Normals-array">-1.00000 0.00000 -0.00000 -1.00000 0.00000 0.00000 1.00000 0.00000 0.00000 -0.00000 0.00000 1.00000 0.32802 0.94467 0.00000 0.06679 0.99777 0.00000 -1.00000 0.00000 0.00000 -1.00000 0.00000 0.00000 -0.13329 -0.99108 0.00000 1.00000 -0.00000 0.00000 -1.00000 0.00000 0.00000 -1.00000 -0.00000 -0.00000 1.00000 -0.00000 0.00000 -0.00000 0.00000 -1.00000 0.87695 -0.48058 0.00000 -1.00000 0.00000 0.00000 1.00000 0.00000 0.00000 1.00000 -0.00000 0.00000 1.00000 0.00000 0.00000 -1.00000 -0.00000 0.00000 0.00000 0.00000 1.00000 -1.00000 0.00000 0.00000 -1.00000 0.00000 -0.00000 1.00000 0.00000 0.00000 0.90709 0.42094 -0.00000 -1.00000 -0.00000 -0.00000 -0.00000 -0.49044 0.87147 0.00000 0.00000 1.00000 0.97276 -0.23182 0.00000 0.95510 0.29628 0.00000 1.00000 0.00000 -0.00000 0.00000 0.00000 -1.00000 1.00000 0.00000 0.00000 0.93318 -0.35941 0.00000 -1.00000 0.00000 0.00000 1.00000 -0.00000 0.00000 -0.00000 -0.79382 0.60815 0.00000 0.00000 -1.00000 -0.61975 -0.78480 0.00000 -1.00000 0.00000 -0.00000 -1.00000 -0.00000 0.00000 1.00000 0.00000 -0.00000 0.00000 -0.00000 -1.00000 0.00000 0.00000 -1.00000 -1.00000 0.00000 0.00000 0.00000 0.00000 1.00000 -1.00000 -0.00000 -0.00000 1.00000 0.00000 0.00000 -0.00000 0.00000 1.00000 -0.97504 -0.22196 -0.00487 0.97385 0.22708 0.00721 -1.00000 0.00000 -0.00000 -0.78288 -0.62213 -0.00766 1.00000 0.00000 0.00000 -0.99371 -0.11167 -0.00827 -0.97276 -0.23182 -0.00000 1.00000 -0.00000 0.00000 -0.06679 0.99777 -0.00000 -0.90143 -0.43284 -0.00875 -1.00000 0.00000 0.00000 0.13329 -0.99108 0.00000 1.00000 -0.00000 -0.00000 -0.00000 0.00000 1.00000 1.00000 -0.00000 0.00000 -1.00000 -0.00000 0.00000 -1.00000 0.00000 0.00000 -0.99944 0.03342 0.00000 -0.32802 0.94467 -0.00000 1.00000 0.00000 0.00000 1.00000 0.00000 -0.00000 1.00000 0.00000 0.00000 -1.00000 -0.00000 0.00000 1.00000 0.00000 0.00000 -1.00000 0.00000 -0.00000 -1.00000 0.00000 0.00000 1.00000 -0.00000 0.00000 0.00000 -0.00000 1.00000 1.00000 0.00000 0.00000 -0.06679 0.99777 -0.00000 0.00000 -0.00000 1.00000 1.00000 -0.00000 0.00000 1.00000 0.00000 0.00000 0.50962 -0.86040 0.00000 0.00000 -0.00000 1.00000 -0.00000 0.00000 1.00000 -1.00000 -0.00000 -0.00000 0.00000 0.00000 -1.00000 1.00000 0.00000 0.00000 0.45101 0.89252 -0.00000 -0.33325 -0.94281 -0.00691 -0.45101 0.89252 -0.00000 1.00000 -0.00000 0.00000 -0.00000 -0.00000 1.00000 -0.98607 0.16633 0.00000 1.00000 0.00000 0.00000 0.00000 -0.00000 -1.00000 1.00000 -0.00000 0.00000 1.00000 0.00000 -0.00000 1.00000 -0.00000 0.00000 -1.00000 0.00000 -0.00000 -0.97385 -0.22708 0.00721 -1.00000 -0.00000 0.00000 -0.13329 -0.99108 0.00000 -0.19919 0.97996 -0.00000 -0.00000 0.00000 1.00000 -0.26420 -0.96447 0.00000 0.00000 0.00000 -1.00000 -0.00000 0.00000 -1.00000 1.00000 -0.00000 0.00000 0.13329 -0.99108 0.00000 -1.00000 0.00000 0.00000 1.00000 0.00000 0.00000 0.39039 -0.92065 0.00000 -0.76365 0.64563 0.00000 -0.00000 -0.79382 0.60815 0.97387 -0.22709 -0.00188 1.00000 0.00000 -0.00000 -1.00000 0.00000 0.00000 -0.00000 -0.79382 0.60815 -0.99498 -0.10010 -0.00000 -0.00000 0.00000 1.00000 -1.00000 0.00000 0.00000 1.00000 -0.00000 0.00000 -0.00000 0.00000 -1.00000 0.19919 0.97996 0.00000 0.76365 0.64563 -0.00000 1.00000 -0.00000 0.00000 1.00000 -0.00000 0.00000 -1.00000 -0.00000 0.00000 1.00000 0.00000 0.00000 0.06679 0.99777 0.00000 -0.61975 -0.78480 -0.00000 -0.00000 1.00000 -0.00000 -0.39039 -0.92065 0.00000 -0.00000 -0.00000 -1.00000 -0.00000 -0.79382 0.60815 -1.00000 -0.00000 0.00000 -1.00000 0.00000 -0.00000 0.00000 -0.79382 0.60815 -0.56595 0.82444 0.00000 1.00000 -0.00000 0.00000 -0.90709 0.42093 0.00000 0.00000 -0.00000 -1.00000 1.00000 -0.00000 0.00000 -1.00000 0.00000 -0.00000 -1.00000 0.00000 0.00000 -1.00000 -0.00000 0.00000 -0.94414 0.32946 -0.00694 -0.80507 -0.59318 0.00000 -0.67078 0.74165 -0.00000 1.00000 0.00000 -0.00000 -1.00000 -0.00000 0.00000 -1.00000 0.00000 0.00000 -1.00000 -0.00000 -0.00000 -0.93318 -0.35941 0.00000 -0.00000 -0.75738 0.65298 -1.00000 0.00000 0.00000 1.00000 0.00000 0.00000 1.00000 0.00000 0.00000 1.00000 -0.00000 0.00000 -1.00000 0.00000 -0.00000 -1.00000 -0.00000 0.00000 -0.43644 -0.89969 -0.00914 -0.00000 -0.79382 0.60815 1.00000 0.00000 -0.00000 0.87695 -0.48058 0.00000 0.26420 -0.96447 0.00000 0.00000 -0.00000 -1.00000 -1.00000 0.00000 0.00000 0.71882 -0.69519 0.00000 0.00000 0.00000 -1.00000 -1.00000 0.00000 0.00000 -0.00000 -0.79382 0.60815 -1.00000 -0.00000 0.00000 0.80507 -0.59318 0.00000 1.00000 -0.00000 0.00000 1.00000 -0.00000 0.00000 -0.45101 0.89252 -0.00000 -1.00000 -0.00000 -0.00000 0.00000 -1.00000 0.00000 0.00000 0.00000 -1.00000 1.00000 -0.00000 0.00000 1.00000 -0.00000 0.00000 0.99344 0.11429 0.00382 0.00000 -0.00000 -1.00000 -1.00000 -0.00000 -0.00000 0.00000 0.00000 -1.00000 -1.00000 -0.00000 0.00000 1.00000 0.00000 -0.00000 1.00000 0.00000 -0.00000 0.26420 -0.96447 0.00000 -1.00000 0.00000 -0.00000 -0.62526 0.78038 -0.00717 0.45101 0.89252 0.00000 -1.00000 0.00000 0.00000 -1.00000 0.00000 -0.00000 0.99345 -0.11429 -0.00129 1.00000 0.00000 0.00000 -1.00000 0.00000 -0.00000 1.00000 -0.00000 0.00000 -0.97387 0.22709 -0.00188 -0.00000 0.00000 1.00000 -0.90143 0.43283 -0.00912 1.00000 -0.00000 0.00000 -1.00000 0.00000 -0.00000 1.00000 0.00000 0.00000 1.00000 -0.00000 0.00000 0.00000 -0.00000 1.00000 1.00000 0.00000 0.00000 1.00000 0.00000 -0.00000 -0.62527 -0.78038 -0.00679 0.80507 -0.59318 0.00000 -1.00000 0.00000 0.00098 1.00000 0.00000 0.00000 1.00000 0.00000 0.00000 -1.00000 -0.00000 0.00000 0.67078 0.74165 0.00000 -0.50016 -0.50085 -0.70639 1.00000 0.00000 0.00000 0.00000 -1.00000 0.00000 1.00000 0.00000 0.00000 -0.84745 0.53080 -0.00916 -0.00000 0.00000 1.00000 -0.98604 -0.00000 -0.16650 1.00000 -0.00000 0.00000 -1.00000 -0.00000 -0.00000 -1.00000 -0.00000 -0.00000 0.50057 -0.49823 -0.70795 0.00000 -0.79382 0.60815 -0.80507 -0.59318 -0.00000 0.00000 -0.79382 0.60815 -1.00000 0.00000 0.00000 -0.98607 0.16633 0.00000 -1.00000 0.00000 -0.00000 0.84289 0.53808 0.00000 0.33325 0.94282 -0.00682 -0.95510 0.29628 0.00000 0.00000 -0.00000 1.00000 -1.00000 0.00000 -0.00000 -1.00000 0.00000 0.00000 -1.00000 -0.00000 0.00000 1.00000 -0.00000 0.00000 0.53419 0.84531 -0.00919 -0.90709 0.42093 -0.00000 -1.00000 0.00000 -0.00000 0.62526 0.78038 -0.00717 -0.39039 -0.92065 0.00000 -1.00000 0.00000 -0.00000 -1.00000 -0.00000 0.00000 0.00000 -1.00000 0.00000 0.00000 -0.00000 -1.00000 0.00000 -1.00000 -0.00000 -0.99372 0.11167 -0.00728 0.61975 -0.78480 0.00000 0.78288 0.62213 -0.00705 -1.00000 0.00000 -0.00000 -0.50962 -0.86040 0.00000 0.84745 0.53080 -0.00916 0.99498 -0.10010 0.00000 0.94414 0.32946 -0.00694 1.00000 0.00000 0.00000 -1.00000 -0.00000 0.00000 0.95510 0.29628 -0.00000 0.90143 0.43283 -0.00912 1.00000 0.00000 0.00000 1.00000 -0.00000 0.00000 0.00000 -0.00000 -1.00000 1.00000 -0.00000 0.00000 0.97505 0.22196 -0.00319 1.00000 0.00000 -0.00000 -0.97276 -0.23182 0.00000 0.99372 0.11168 -0.00728 -1.00000 0.00000 0.00000 0.90709 0.42094 -0.00000 0.00000 0.00000 -1.00000 1.00000 -0.00000 0.00098 -0.93318 -0.35941 -0.00000 0.99372 -0.11168 -0.00728 1.00000 -0.00000 0.00000 -0.84289 0.53808 0.00000 -1.00000 0.00000 -0.00000 -0.95510 0.29628 0.00000 0.97505 -0.22196 -0.00261 1.00000 -0.00000 0.00000 0.99498 -0.10010 0.00000 0.94414 -0.32946 -0.00694 0.00000 0.00000 1.00000 -0.97505 0.22196 -0.00262 -0.33324 0.94282 -0.00682 0.90143 -0.43283 -0.00912 1.00000 0.00000 0.00000 1.00000 0.00000 0.00000 0.00000 -1.00000 -0.00000 -1.00000 0.00000 -0.00000 1.00000 -0.00000 0.00000 -0.50962 -0.86040 0.00000 0.78288 -0.62213 -0.00705 0.50962 -0.86040 0.00000 -1.00000 -0.00000 -0.00000 -1.00000 0.00000 0.00000 -0.71882 -0.69519 -0.00000 -1.00000 -0.00000 0.00000 1.00000 0.00000 0.00000 1.00000 -0.00000 0.00000 -0.26420 -0.96447 0.00000 0.62527 -0.78038 -0.00717 0.00000 0.00000 1.00000 -0.78288 0.62213 -0.00705 0.53419 -0.84531 -0.00919 -0.00000 0.00000 1.00000 -0.00000 -0.00000 -1.00000 0.43644 -0.89969 -0.00908 0.84289 0.53808 0.00000 0.33325 -0.94282 -0.00682 0.50146 0.49911 -0.70670 0.00000 -1.00000 0.00000 1.00000 0.00000 0.00000 -1.00000 -0.00000 0.00000 -0.99345 0.11429 -0.00129 -0.00000 -1.00000 0.00000 -1.00000 -0.00000 -0.00000 0.00000 0.00000 1.00000 0.00000 0.00000 1.00000 0.98607 0.16633 0.00000 1.00000 0.00000 0.00000 0.00000 -0.00000 -1.00000 0.00000 0.06518 0.99787 1.00000 0.00000 0.00000 -0.00000 -1.00000 0.00000 1.00000 0.00000 0.00000 1.00000 -0.00000 0.00000 -1.00000 -0.00000 0.00000 0.00000 -1.00000 0.00000 1.00000 -0.00000 0.00000 -1.00000 -0.00000 0.00000 1.00000 0.00000 -0.00000 -0.00000 0.00000 1.00000 1.00000 0.00000 0.00000 0.98604 0.00000 -0.16650 -0.19919 0.97996 -0.00000 0.56595 0.82444 0.00000 0.00000 -0.79382 0.60815 0.39039 -0.92065 0.00000 -0.32802 0.94467 -0.00000 -0.99498 -0.10010 -0.00000 0.00000 1.00000 -0.00000 0.56595 0.82444 -0.00000 1.00000 0.00000 0.00000 0.00000 0.00000 -1.00000 -1.00000 0.00000 0.00000 -0.00000 1.00000 0.00000 1.00000 0.00000 0.00000 0.00000 -0.00000 -1.00000 0.00000 0.00000 -1.00000 1.00000 0.00000 0.00000 -1.00000 -0.00000 0.00000 -1.00000 0.00000 0.00000 1.00000 -0.00000 0.00000 1.00000 0.00000 -0.00000 -0.00000 0.00000 1.00000 1.00000 0.00000 -0.00000 -0.00000 1.00000 -0.00000 -1.00000 -0.00000 -0.00000 1.00000 0.00000 0.00000 -0.56595 0.82444 -0.00000 -0.87695 -0.48058 0.00000 -1.00000 0.00000 0.00000 -1.00000 0.00000 0.00000 -1.00000 0.00000 0.00000 -1.00000 0.00000 0.00000 -1.00000 -0.00000 0.00000 -0.87695 -0.48058 -0.00000 1.00000 -0.00000 0.00000 -1.00000 -0.00000 0.00000 -1.00000 0.00000 0.00000 1.00000 0.00000 0.00000 -0.71882 -0.69519 -0.00000 1.00000 -0.00000 0.00000 1.00000 0.00000 0.00000 -1.00000 0.00000 0.00000 -0.00000 -1.00000 0.00000 -1.00000 0.00000 -0.00000 0.32802 0.94467 0.00000 -1.00000 0.00000 -0.00000 -1.00000 -0.00000 -0.00000 0.61975 -0.78480 0.00000 -1.00000 -0.00000 0.00000 0.19919 0.97996 0.00000 -1.00000 -0.00000 -0.00000 1.00000 0.00000 -0.00000 -1.00000 0.00000 0.00000 0.00000 0.00000 1.00000 0.98604 -0.00000 -0.16650 1.00000 -0.00000 0.00000 0.98607 0.16633 0.00000 0.00000 -0.00000 1.00000 1.00000 -0.00000 0.00000 -1.00000 -0.00000 0.00000 -1.00000 0.00000 0.00000 0.00000 -1.00000 0.00000 1.00000 0.00000 0.00000 1.00000 0.00000 -0.00000 -0.94415 -0.32946 -0.00590 -1.00000 -0.00000 0.00000 1.00000 0.00000 0.00000 -1.00000 0.00000 0.00000 0.00000 0.00000 1.00000 -1.00000 -0.00000 -0.00000 1.00000 0.00000 -0.00000 1.00000 0.00000 -0.00000 -0.00000 -0.00000 -1.00000 1.00000 0.00000 0.00000 -1.00000 0.00000 -0.00000 -0.99344 -0.11429 0.00382 1.00000 0.00000 -0.00000 -0.00000 0.00000 -1.00000 -1.00000 -0.00000 -0.00000 -1.00000 -0.00000 -0.00000 0.00000 -0.79382 0.60815 -0.00000 0.00000 -1.00000 -1.00000 -0.00000 -0.00000 -0.50122 0.49887 -0.70704 1.00000 -0.00000 0.00000 -1.00000 0.00000 0.00000 -0.00000 -0.79382 0.60815 0.93318 -0.35941 0.00000 1.00000 -0.00000 0.00000 1.00000 0.00000 0.00000 -0.00000 -0.79382 0.60815 -0.84289 0.53808 -0.00000 -0.76365 0.64563 -0.00000 -0.00000 0.00000 1.00000 0.97276 -0.23182 0.00000 0.00000 -1.00000 0.00000 1.00000 -0.00000 -0.00000</float_array>
					<technique_common>
						<accessor count="435" source="#Mesh-Geometry-Normals-array" stride="3">
							<param type="float" name="X"></param>
							<param type="float" name="Y"></param>
							<param type="float" name="Z"></param>
						</accessor>
					</technique_common>
				</source>
				<vertices id="Mesh-Geometry-Vertex">
					<input semantic="POSITION" source="#Mesh-Geometry-Position"/>
				</vertices>
				<triangles count="435">
					<input offset="0" semantic="VERTEX" source="#Mesh-Geometry-Vertex"/>
					<input offset="1" semantic="NORMAL" source="#Mesh-Geometry-Normals"/>
					<p>0 0 1 0 2 0 3 1 4 1 5 1 6 2 7 2 8 2 9 3 10 3 11 3 12 4 13 4 14 4 15 5 16 5 17 5 18 6 19 6 20 6 21 7 22 7 23 7 24 8 25 8 26 8 27 9 28 9 29 9 30 10 31 10 32 10 33 11 34 11 35 11 36 12 37 12 38 12 39 13 40 13 41 13 42 14 43 14 44 14 45 15 46 15 47 15 48 16 49 16 50 16 51 17 52 17 53 17 54 18 55 18 56 18 57 19 58 19 59 19 60 20 61 20 62 20 63 21 64 21 65 21 66 22 67 22 68 22 69 23 70 23 71 23 72 24 73 24 74 24 75 25 76 25 77 25 78 26 79 26 80 26 81 27 82 27 83 27 84 28 85 28 86 28 87 29 88 29 89 29 90 30 91 30 92 30 93 31 94 31 95 31 96 32 97 32 98 32 99 33 100 33 101 33 102 34 103 34 104 34 105 35 106 35 107 35 108 36 109 36 110 36 111 37 112 37 113 37 114 38 115 38 116 38 117 39 118 39 119 39 120 40 121 40 122 40 123 41 124 41 125 41 126 42 127 42 128 42 129 43 130 43 131 43 132 44 133 44 134 44 135 45 136 45 137 45 138 46 139 46 140 46 141 47 142 47 143 47 144 48 145 48 146 48 147 49 148 49 149 49 150 50 151 50 152 50 153 51 154 51 155 51 156 52 157 52 158 52 159 53 160 53 161 53 162 54 163 54 164 54 165 55 166 55 167 55 168 56 169 56 170 56 171 57 172 57 173 57 174 58 175 58 176 58 177 59 178 59 179 59 180 60 181 60 182 60 183 61 184 61 185 61 186 62 187 62 188 62 189 63 190 63 191 63 192 64 193 64 194 64 195 65 196 65 197 65 198 66 199 66 200 66 201 67 202 67 203 67 204 68 205 68 206 68 207 69 208 69 209 69 210 70 211 70 212 70 213 71 214 71 215 71 216 72 217 72 218 72 219 73 220 73 221 73 222 74 223 74 224 74 225 75 226 75 227 75 228 76 229 76 230 76 231 77 232 77 233 77 234 78 235 78 236 78 237 79 238 79 239 79 240 80 241 80 242 80 243 81 244 81 245 81 246 82 247 82 248 82 249 83 250 83 251 83 252 84 253 84 254 84 255 85 256 85 257 85 258 86 259 86 260 86 261 87 262 87 263 87 264 88 265 88 266 88 267 89 268 89 269 89 270 90 271 90 272 90 273 91 274 91 275 91 276 92 277 92 278 92 279 93 280 93 281 93 282 94 283 94 284 94 285 95 286 95 287 95 288 96 289 96 290 96 291 97 292 97 293 97 294 98 295 98 296 98 297 99 298 99 299 99 300 100 301 100 302 100 303 101 304 101 305 101 306 102 307 102 308 102 309 103 310 103 311 103 312 104 313 104 314 104 315 105 316 105 317 105 318 106 319 106 320 106 321 107 322 107 323 107 324 108 325 108 326 108 327 109 328 109 329 109 330 110 331 110 332 110 333 111 334 111 335 111 336 112 337 112 338 112 339 113 340 113 341 113 342 114 343 114 344 114 345 115 346 115 347 115 348 116 349 116 350 116 351 117 352 117 353 117 354 118 355 118 356 118 357 119 358 119 359 119 360 120 361 120 362 120 363 121 364 121 365 121 366 122 367 122 368 122 369 123 370 123 371 123 372 124 373 124 374 124 375 125 376 125 377 125 378 126 379 126 380 126 381 127 382 127 383 127 384 128 385 128 386 128 387 129 388 129 389 129 390 130 391 130 392 130 393 131 394 131 395 131 396 132 397 132 398 132 399 133 400 133 401 133 402 134 403 134 404 134 405 135 406 135 407 135 408 136 409 136 410 136 411 137 412 137 413 137 414 138 415 138 416 138 417 139 418 139 419 139 420 140 421 140 422 140 423 141 424 141 425 141 426 142 427 142 428 142 429 143 430 143 431 143 432 144 433 144 434 144 435 145 436 145 437 145 438 146 439 146 440 146 441 147 442 147 443 147 444 148 445 148 446 148 447 149 448 149 449 149 450 150 451 150 452 150 453 151 454 151 455 151 456 152 457 152 458 152 459 153 460 153 461 153 462 154 463 154 464 154 465 155 466 155 467 155 468 156 469 156 470 156 471 157 472 157 473 157 474 158 475 158 476 158 477 159 478 159 479 159 480 160 481 160 482 160 483 161 484 161 485 161 486 162 487 162 488 162 489 163 490 163 491 163 492 164 493 164 494 164 495 165 496 165 497 165 498 166 499 166 500 166 501 167 502 167 503 167 504 168 505 168 506 168 507 169 508 169 509 169 510 170 511 170 512 170 513 171 514 171 515 171 516 172 517 172 518 172 519 173 520 173 521 173 522 174 523 174 524 174 525 175 526 175 527 175 528 176 529 176 530 176 531 177 532 177 533 177 534 178 535 178 536 178 537 179 538 179 539 179 540 180 541 180 542 180 543 181 544 181 545 181 546 182 547 182 548 182 549 183 550 183 551 183 552 184 553 184 554 184 555 185 556 185 557 185 558 186 559 186 560 186 561 187 562 187 563 187 564 188 565 188 566 188 567 189 568 189 569 189 570 190 571 190 572 190 573 191 574 191 575 191 576 192 577 192 578 192 579 193 580 193 581 193 582 194 583 194 584 194 585 195 586 195 587 195 588 196 589 196 590 196 591 197 592 197 593 197 594 198 595 198 596 198 597 199 598 199 599 199 600 200 601 200 602 200 603 201 604 201 605 201 606 202 607 202 608 202 609 203 610 203 611 203 612 204 613 204 614 204 615 205 616 205 617 205 618 206 619 206 620 206 621 207 622 207 623 207 624 208 625 208 626 208 627 209 628 209 629 209 630 210 631 210 632 210 633 211 634 211 635 211 636 212 637 212 638 212 639 213 640 213 641 213 642 214 643 214 644 214 645 215 646 215 647 215 648 216 649 216 650 216 651 217 652 217 653 217 654 218 655 218 656 218 657 219 658 219 659 219 660 220 661 220 662 220 663 221 664 221 665 221 666 222 667 222 668 222 669 223 670 223 671 223 672 224 673 224 674 224 675 225 676 225 677 225 678 226 679 226 680 226 681 227 682 227 683 227 684 228 685 228 686 228 687 229 688 229 689 229 690 230 691 230 692 230 693 231 694 231 695 231 696 232 697 232 698 232 699 233 700 233 701 233 702 234 703 234 704 234 705 235 706 235 707 235 708 236 709 236 710 236 711 237 712 237 713 237 714 238 715 238 716 238 717 239 718 239 719 239 720 240 721 240 722 240 723 241 724 241 725 241 726 242 727 242 728 242 729 243 730 243 731 243 732 244 733 244 734 244 735 245 736 245 737 245 738 246 739 246 740 246 741 247 742 247 743 247 744 248 745 248 746 248 747 249 748 249 749 249 750 250 751 250 752 250 753 251 754 251 755 251 756 252 757 252 758 252 759 253 760 253 761 253 762 254 763 254 764 254 765 255 766 255 767 255 768 256 769 256 770 256 771 257 772 257 773 257 774 258 775 258 776 258 777 259 778 259 779 259 780 260 781 260 782 260 783 261 784 261 785 261 786 262 787 262 788 262 789 263 790 263 791 263 792 264 793 264 794 264 795 265 796 265 797 265 798 266 799 266 800 266 801 267 802 267 803 267 804 268 805 268 806 268 807 269 808 269 809 269 810 270 811 270 812 270 813 271 814 271 815 271 816 272 817 272 818 272 819 273 820 273 821 273 822 274 823 274 824 274 825 275 826 275 827 275 828 276 829 276 830 276 831 277 832 277 833 277 834 278 835 278 836 278 837 279 838 279 839 279 840 280 841 280 842 280 843 281 844 281 845 281 846 282 847 282 848 282 849 283 850 283 851 283 852 284 853 284 854 284 855 285 856 285 857 285 858 286 859 286 860 286 861 287 862 287 863 287 864 288 865 288 866 288 867 289 868 289 869 289 870 290 871 290 872 290 873 291 874 291 875 291 876 292 877 292 878 292 879 293 880 293 881 293 882 294 883 294 884 294 885 295 886 295 887 295 888 296 889 296 890 296 891 297 892 297 893 297 894 298 895 298 896 298 897 299 898 299 899 299 900 300 901 300 902 300 903 301 904 301 905 301 906 302 907 302 908 302 909 303 910 303 911 303 912 304 913 304 914 304 915 305 916 305 917 305 918 306 919 306 920 306 921 307 922 307 923 307 924 308 925 308 926 308 927 309 928 309 929 309 930 310 931 310 932 310 933 311 934 311 935 311 936 312 937 312 938 312 939 313 940 313 941 313 942 314 943 314 944 314 945 315 946 315 947 315 948 316 949 316 950 316 951 317 952 317 953 317 954 318 955 318 956 318 957 319 958 319 959 319 960 320 961 320 962 320 963 321 964 321 965 321 966 322 967 322 968 322 969 323 970 323 971 323 972 324 973 324 974 324 975 325 976 325 977 325 978 326 979 326 980 326 981 327 982 327 983 327 984 328 985 328 986 328 987 329 988 329 989 329 990 330 991 330 992 330 993 331 994 331 995 331 996 332 997 332 998 332 999 333 1000 333 1001 333 1002 334 1003 334 1004 334 1005 335 1006 335 1007 335 1008 336 1009 336 1010 336 1011 337 1012 337 1013 337 1014 338 1015 338 1016 338 1017 339 1018 339 1019 339 1020 340 1021 340 1022 340 1023 341 1024 341 1025 341 1026 342 1027 342 1028 342 1029 343 1030 343 1031 343 1032 344 1033 344 1034 344 1035 345 1036 345 1037 345 1038 346 1039 346 1040 346 1041 347 1042 347 1043 347 1044 348 1045 348 1046 348 1047 349 1048 349 1049 349 1050 350 1051 350 1052 350 1053 351 1054 351 1055 351 1056 352 1057 352 1058 352 1059 353 1060 353 1061 353 1062 354 1063 354 1064 354 1065 355 1066 355 1067 355 1068 356 1069 356 1070 356 1071 357 1072 357 1073 357 1074 358 1075 358 1076 358 1077 359 1078 359 1079 359 1080 360 1081 360 1082 360 1083 361 1084 361 1085 361 1086 362 1087 362 1088 362 1089 363 1090 363 1091 363 1092 364 1093 364 1094 364 1095 365 1096 365 1097 365 1098 366 1099 366 1100 366 1101 367 1102 367 1103 367 1104 368 1105 368 1106 368 1107 369 1108 369 1109 369 1110 370 1111 370 1112 370 1113 371 1114 371 1115 371 1116 372 1117 372 1118 372 1119 373 1120 373 1121 373 1122 374 1123 374 1124 374 1125 375 1126 375 1127 375 1128 376 1129 376 1130 376 1131 377 1132 377 1133 377 1134 378 1135 378 1136 378 1137 379 1138 379 1139 379 1140 380 1141 380 1142 380 1143 381 1144 381 1145 381 1146 382 1147 382 1148 382 1149 383 1150 383 1151 383 1152 384 1153 384 1154 384 1155 385 1156 385 1157 385 1158 386 1159 386 1160 386 1161 387 1162 387 1163 387 1164 388 1165 388 1166 388 1167 389 1168 389 1169 389 1170 390 1171 390 1172 390 1173 391 1174 391 1175 391 1176 392 1177 392 1178 392 1179 393 1180 393 1181 393 1182 394 1183 394 1184 394 1185 395 1186 395 1187 395 1188 396 1189 396 1190 396 1191 397 1192 397 1193 397 1194 398 1195 398 1196 398 1197 399 1198 399 1199 399 1200 400 1201 400 1202 400 1203 401 1204 401 1205 401 1206 402 1207 402 1208 402 1209 403 1210 403 1211 403 1212 404 1213 404 1214 404 1215 405 1216 405 1217 405 1218 406 1219 406 1220 406 1221 407 1222 407 1223 407 1224 408 1225 408 1226 408 1227 409 1228 409 1229 409 1230 410 1231 410 1232 410 1233 411 1234 411 1235 411 1236 412 1237 412 1238 412 1239 413 1240 413 1241 413 1242 414 1243 414 1244 414 1245 415 1246 415 1247 415 1248 416 1249 416 1250 416 1251 417 1252 417 1253 417 1254 418 1255 418 1256 418 1257 419 1258 419 1259 419 1260 420 1261 420 1262 420 1263 421 1264 421 1265 421 1266 422 1267 422 1268 422 1269 423 1270 423 1271 423 1272 424 1273 424 1274 424 1275 425 1276 425 1277 425 1278 426 1279 426 1280 426 1281 427 1282 427 1283 427 1284 428 1285 428 1286 428 1287 429 1288 429 1289 429 1290 430 1291 430 1292 430 1293 431 1294 431 1295 431 1296 432 1297 432 1298 432 1299 433 1300 433 1301 433 1302 434 1303 434 1304 434</p>
				</triangles>
			</mesh>
		</geometry>
	</library_geometries>
	<library_visual_scenes>
		<visual_scene id="Scene" name="Scene">
			<node layer="L1" id="Mesh" name="Mesh">
				<translate sid="translate">0.00000 0.00000 0.00000</translate>
				<rotate sid="rotateZ">0 0 1 0.00000</rotate>
				<rotate sid="rotateY">0 1 0 -0.00000</rotate>
				<rotate sid="rotateX">1 0 0 0.00000</rotate>
				<scale sid="scale">1.00000 1.00000 1.00000</scale>
				<instance_geometry url="#Mesh-Geometry"/>
			</node>
			<node layer="L1" id="Lamp" name="Lamp">
				<translate sid="translate">4.07625 1.00545 5.90386</translate>
				<rotate sid="rotateZ">0 0 1 106.93632</rotate>
				<rotate sid="rotateY">0 1 0 3.16371</rotate>
				<rotate sid="rotateX">1 0 0 37.26105</rotate>
				<scale sid="scale">1.00000 1.00000 1.00000</scale>
				<instance_light url="#Spot"/>
			</node>
			<node layer="L1" id="Camera" name="Camera">
				<translate sid="translate">7.48113 -6.50764 5.34367</translate>
				<rotate sid="rotateZ">0 0 1 46.69194</rotate>
				<rotate sid="rotateY">0 1 0 0.61977</rotate>
				<rotate sid="rotateX">1 0 0 63.55930</rotate>
				<scale sid="scale">1.00000 1.00000 1.00000</scale>
				<instance_camera url="#Camera-Camera"/>
			</node>
		</visual_scene>
	</library_visual_scenes>
	<library_physics_materials>
		<physics_material id="Mesh-PhysicsMaterial" name="Mesh-PhysicsMaterial">
			<technique_common>
				<dynamic_friction>0</dynamic_friction>
				<restitution>0</restitution>
				<static_friction>0</static_friction>
			</technique_common>
		</physics_material>
	</library_physics_materials>
	<library_physics_models>
		<physics_model id="Scene-PhysicsModel" name="Scene-PhysicsModel">
			<rigid_body name="Mesh-RigidBody" sid="Mesh-RigidBody">
				<technique_common>
					<dynamic>false</dynamic>
					<mass>0</mass>
					<instance_physics_material url="#Mesh-PhysicsMaterial"/>
					<shape>
						<instance_geometry url="#Mesh-Geometry"/>
					</shape>
				</technique_common>
			</rigid_body>
		</physics_model>
	</library_physics_models>
	<library_physics_scenes>
		<physics_scene id="Scene-Physics" name="Scene-Physics">
			<instance_physics_model url="#Scene-PhysicsModel">
				<instance_rigid_body body="Mesh-RigidBody" target="#Mesh"/>
			</instance_physics_model>
		</physics_scene>
	</library_physics_scenes>
	<scene>
		<instance_physics_scene url="#Scene-Physics"/>
		<instance_visual_scene url="#Scene"/>
	</scene>
</COLLADA>