-0.000132729	-0.206264	-0.00846089	
9.17389e-05	-0.206287	-0.00858826	
0.00567613	-0.205815	-0.0115033	
0.00206414	-0.205943	-0.00924395	
0.00169233	-0.20607	-0.00898741	
0.000676059	-0.206281	-0.00870195	
0.000302328	-0.206851	-0.00849901	
0.00112092	-0.206771	-0.00906386	
0.000152532	-0.206139	-0.00854368	
5.95663e-05	-0.206131	-0.00846511	
1.24328e-05	-0.206062	-0.00846211	
4.59577e-05	-0.206415	-0.00849159	
0.000238471	-0.206435	-0.00865687	
-0.000262242	-0.206538	-0.00808829	
-0.000813433	-0.208102	-0.00738244	
-0.000910963	-0.212195	-0.00670562	
-0.00075982	-0.218066	-0.00600784	
-0.00503372	-0.226083	-0.00475391	
-0.00436659	-0.231388	-0.00282397	
-0.00574042	-0.237053	-0.00168597	
-0.00712125	-0.242004	-0.000613746	
-0.012062	-0.245647	0.00074302	
-0.00755769	-0.245176	-0.000483038	
-0.00949139	-0.240487	0.00168206	
-0.0111759	-0.23771	0.00288101	
-0.0108572	-0.241388	0.00327679	
-0.0118207	-0.247591	0.00384918	
-0.0123079	-0.249134	0.00451584	
-0.0128131	-0.25221	0.00530816	
-0.0120781	-0.25662	0.00641247	
-0.0165595	-0.260882	0.00910117	
-0.0166276	-0.266314	0.0089252	
-0.0159756	-0.270081	0.00867953	
-0.0144198	-0.273303	0.00837521	
-0.0232641	-0.274745	0.0108174	
-0.0157512	-0.277059	0.0088851	
-0.016629	-0.279414	0.01022	
-0.0160062	-0.279905	0.00946974	
-0.0196898	-0.279294	0.00989886	
-0.0186738	-0.281356	0.0107817	
-0.0177573	-0.276997	0.0104577	
-0.0168708	-0.27114	0.0101274	
-0.0175383	-0.268176	0.00956015	
-0.015674	-0.270137	0.00797276	
-0.0147352	-0.267123	0.00763762	
-0.0135512	-0.265275	0.00631942	
-0.0120319	-0.265825	0.00416305	
-0.0118164	-0.264686	0.00402025	
-0.0119198	-0.265405	0.00314162	
-0.0126265	-0.2642	0.0025816	
-0.0214914	-0.258455	0.00463605	
-0.0175812	-0.258993	0.00187547	
-0.00864459	-0.261634	-0.000925879	
-0.00802844	-0.259399	-0.00140632	
-0.0074029	-0.256743	-0.00232474	
0.00921957	-0.248514	-0.0131003	
0.00475086	-0.258778	-0.0132354	
-0.00918195	-0.264112	-0.00906818	
0.00447926	-0.259086	-0.0114981	
0.00293205	-0.256783	-0.0110459	
0.00302973	-0.256574	-0.0103072	
-0.00330571	-0.258202	-0.0093369	
0.00208676	-0.257126	-0.0100354	
0.00179183	-0.257114	-0.00993272	
0.000612648	-0.256069	-0.00947188	
0.00176654	-0.255333	-0.00969217	
-0.00242913	-0.25436	-0.00901989	
0.00102068	-0.253991	-0.0100415	
0.000974303	-0.253598	-0.0101632	
0.000505631	-0.253945	-0.00988553	
0.00115149	-0.254551	-0.0101717	
0.00169665	-0.254527	-0.0101651	
0.00122318	-0.254886	-0.0103822	
0.000776937	-0.254871	-0.00996245	
0.000699275	-0.254858	-0.010015	
0.000442802	-0.254318	-0.00991916	
0.000502025	-0.254122	-0.00973349	
-0.00277092	-0.254165	-0.00878128	
-0.0015686	-0.254645	-0.00882634	
-0.00120597	-0.254508	-0.00910138	
-0.00105566	-0.254646	-0.0093105	
-0.00212401	-0.254172	-0.00838833	
-0.00868957	-0.255003	-0.00780885	
-0.00319292	-0.254751	-0.0081802	
-0.0038002	-0.254806	-0.00782498	
-0.00416997	-0.254663	-0.00778873	
-0.00655144	-0.254186	-0.00645441	
-0.00662408	-0.253682	-0.00633209	
-0.00705611	-0.253372	-0.0059866	
-0.00531179	-0.254194	-0.00677807	
-0.00798151	-0.252496	-0.00581224	
-0.00787202	-0.251482	-0.005925	
-0.00899473	-0.251502	-0.00516847	
-0.0351728	-0.260605	0.0143041	
-0.00755137	-0.219915	0.000399714	
-0.00771317	-0.237172	-0.00649885	
-0.00197887	-0.261663	-0.0101002	
-0.00703216	-0.255321	-0.00607589	
-0.0143515	-0.244545	0.00112311	
-0.00843266	-0.249976	-0.00474975	
-0.00960279	-0.252403	-0.00401277	
-0.0129423	-0.249604	-0.001506	
-0.013586	-0.24982	-0.00139361	
-0.0150062	-0.250463	-0.000341198	
-0.0179164	-0.250444	0.000462237	
-0.0151737	-0.250984	-0.000305758	
-0.015874	-0.251114	0.000211528	
-0.0161101	-0.250942	0.000442659	
-0.0172495	-0.250424	0.0010691	
-0.0194506	-0.25024	0.00151832	
-0.0247409	-0.250962	0.00201234	
-0.0256893	-0.251086	0.00226982	
-0.01941	-0.250573	0.00202021	
-0.017151	-0.250857	0.00102034	
-0.0166954	-0.250666	0.000766744	
-0.0184137	-0.249778	0.00162144	
-0.0172567	-0.250656	0.00124356	
-0.0174309	-0.250572	0.00125189	
-0.0174072	-0.250477	0.00114607	
-0.01741	-0.250253	0.00118435	
-0.0173999	-0.250173	0.00110833	
-0.0196782	-0.249795	0.00242362	
-0.0272922	-0.250908	0.00330346	
-0.0223124	-0.250294	0.00320481	
-0.0201514	-0.250781	0.00307593	
-0.019424	-0.250975	0.00284908	
-0.0245987	-0.250474	0.00385598	
-0.0279736	-0.25103	0.00414332	
-0.0200402	-0.251068	0.00293385	
-0.0203087	-0.251017	0.00310156	
-0.0204413	-0.250759	0.00319642	
-0.0249758	-0.249527	0.00446113	
-0.0273303	-0.250879	0.00370473	
-0.0194321	-0.251096	0.00262076	
-0.0196444	-0.251035	0.00289284	
-0.0199663	-0.251072	0.00318379	
-0.0257214	-0.249668	0.00506453	
-0.0217479	-0.247331	0.0038134	
-0.0427425	-0.269132	0.0306553	
-0.0538282	-0.441361	0.0241266	
-0.0681327	-0.463324	0.046454	
-0.0631945	-0.474035	0.0449264	
-0.064231	-0.465496	0.0464587	
-0.0687947	-0.441047	0.0498656	
-0.0595104	-0.417938	0.0415729	
-0.0500616	-0.407183	0.0362582	
-0.0413139	-0.398968	0.0300747	
-0.03363	-0.393446	0.0235736	
-0.0281769	-0.385517	0.0201102	
-0.0247173	-0.375177	0.0156005	
-0.0180753	-0.363597	0.00793715	
-0.0255413	-0.371885	0.0288626	
-0.0199098	-0.356259	0.0221673	
-0.0148863	-0.34259	0.0167839	
-0.00855125	-0.326727	0.0113007	
-0.0122708	-0.308799	0.00966546	
-0.00727354	-0.283409	0.00569904	
0.000700339	-0.260889	0.000506045	
-0.0176802	-0.241666	0.00802806	
-0.013404	-0.226783	0.00665311	
-0.0092087	-0.210975	0.00314457	
-0.0166887	-0.211514	-0.00629876	
-0.014918	-0.176621	0.00560529	
-0.0176112	-0.169926	0.00367138	
-0.0174323	-0.161467	0.00391693	
-0.0180441	-0.155503	0.00378643	
-0.0182774	-0.151013	0.00346604	
-0.0185613	-0.149812	0.00407508	
-0.0186989	-0.149615	0.00495674	
