-0.00140747	-0.00555478	-0.00595943	
-0.00557587	0.0114764	0.00992026	
0.0138482	-0.00010204	0.00159133	
0.0014379	0.0140056	0.0079614	
-0.00430514	0.0117448	0.00699325	
-0.00157993	0.0155185	0.0074663	
-0.00508155	0.0148201	0.00761564	
0.00484466	-0.00929979	-0.00736167	
-0.00928282	0.00523086	-0.00407908	
0.00541929	0.00339738	0.00129187	
-0.011428	0.0158277	0.00683021	
-0.0033616	0.00802467	0.00619851	
-0.0051023	0.0063985	-0.00198135	
-0.00317333	-0.00687258	-0.00228121	
-0.0117925	0.0146286	-0.00618844	
0.00244482	0.00853945	0.0177803	
-0.0138106	0.0431156	0.00280052	
0.0285915	0.00895559	0.026825	
0.00884457	0.0141368	0.0204233	
-0.00810323	0.0163581	0.000913108	
-0.0143803	0.0323655	-0.00506814	
-0.0149339	0.0252339	0.000686411	
-0.0124738	0.0112434	0.00861319	
0.0204433	-0.0492838	-0.00577638	
0.00978201	0.0114944	0.00478463	
-0.0122439	0.0368109	0.000842861	
-0.00781924	-0.004087	0.0118302	
-0.0112829	0.027982	-0.00926626	
-0.00386821	0.00769547	0.00168014	
-0.00916817	0.0203321	0.0111658	
0.0186252	0.00957667	0.0226879	
-0.0108013	0.0529895	0.0126359	
0.00635627	-0.00252655	0.0238113	
-0.0151617	0.0156811	0.021632	
-0.0178571	0.0489416	0.0293722	
-0.0107454	0.0554519	0.018141	
-0.00428583	0.0420403	0.0126535	
0.000678067	0.00417992	0.0255813	
0.00865015	0.00775333	0.0153492	
0.01232	0.0318942	0.0715458	
-0.00188074	0.00991009	0.0176449	
-0.00087078	-0.0190638	9.28965e-05	
-0.0292933	0.00229055	0.0166316	
-0.0223374	0.0193888	0.0228437	
-0.00247328	-0.00530974	-0.00164422	
0.00219496	0.0121474	0.0139531	
-0.00561849	0.0356339	0.0191836	
0.0235735	-0.00722552	0.0170516	
0.00403209	0.00404662	0.0199461	
0.0108326	-0.0184632	0.0242672	
-0.0115351	0.0103398	0.0129054	
0.00769872	-0.0189558	0.0346001	
0.000899545	0.0125222	0.0190398	
0.0109038	-0.0174366	0.018868	
-0.00679568	-0.00376589	0.00027888	
-0.0289187	0.010065	0.0259487	
-0.0157107	0.0240496	0.0120605	
0.00564668	-0.0216359	0.00296003	
0.0124515	-0.043953	-0.00297767	
-0.0156977	0.00833824	0.0098456	
-0.00870705	-0.00236422	0.0023407	
0.00139242	-0.00715434	0.00844764	
0.00748388	-0.0121238	-0.000497883	
0.00276069	-0.00627704	-0.00371229	
0.00473969	0.00347173	0.00796768	
0.0165234	-0.0388375	0.0100499	
0.00238593	0.00130728	0.0110055	
0.00240131	0.00583607	0.00455146	
-0.0112895	0.0163646	0.00756041	
-0.00543914	0.00184601	-0.00179447	
-0.00650915	0.00440297	0.0012964	
-0.00347704	0.011881	0.00975816	
-0.00455634	0.0175053	0.00987811	
-0.00324771	-0.00126642	-0.00738861	
-0.00351931	0.0110328	0.00116162	
0.0102325	-0.0101861	-0.00214218	
0.00515912	-0.0104954	0.00155159	
-0.00817441	0.0152812	0.000284689	
0.00469103	0.00538855	0.00250072	
-0.000273277	0.00533439	0.0104132	
0.00141255	0.0084773	0.0091913	
-0.00348383	0.00015886	-0.00166033	
-0.00354063	0.0152465	0.00755492	
0.000886531	-0.00192715	0.00231422	
-0.00526772	0.00921798	-0.00385508	
-0.00299659	-0.00101338	0.00459215	
-0.0107313	0.00494438	0.00729248	
-0.0062354	0.0214686	0.00499451	
0.00283153	-0.00298923	-0.00284467	
-0.00162471	0.0156154	0.0111769	
-0.00775208	-0.00381452	-0.00929654	
0.00167947	0.0155808	0.00378983	
0.00273173	0.0127271	0.00917964	
0.00939392	-0.183481	-0.0813639	
0.00397502	-0.107798	-0.0110379	
-0.0842081	0.200087	0.0479273	
0.0287271	0.0207731	0.0207374	
-0.0213224	0.0140477	-0.00176123	
-0.00856572	-0.0096356	-0.0155239	
-0.0189777	0.0523786	0.02972	
-0.00851376	0.00567676	0.00748607	
0.007267	0.000365618	0.00488993	
-0.000390935	0.0121583	0.0120139	
-0.00759513	0.00582337	-0.00591536	
-0.00691616	0.0139941	0.00758709	
-0.00286332	0.0133959	0.00829853	
-0.00852889	0.018946	0.00789149	
0.00265386	0.0139147	0.00926432	
-0.0046487	0.0052436	0.00774433	
-0.00644882	0.0161525	0.0101093	
0.000472253	0.0012072	0.00111298	
-0.00660535	0.0129156	0.00820356	
-0.00314257	-0.00796102	-0.00322647	
-0.00417886	0.00577467	0.00873222	
-0.00344215	0.0156557	0.00934269	
0.00481499	0.00146457	-0.00235788	
-0.0045763	-0.0112256	-0.00315407	
-0.000345471	0.00508233	0.0070289	
-0.0097974	0.00275079	1.01649e-05	
-0.0078005	0.0150879	0.00752552	
-0.00213796	0.0197416	0.00940669	
-0.00733701	0.0211696	0.00803157	
0.000416035	0.000136338	-0.00487586	
0.00226885	-0.0121097	-0.00229603	
-0.00534303	0.0163347	0.00802645	
0.000237738	0.00119601	0.00193434	
0.0174805	-0.00144408	0.0101768	
0.00429764	0.0175877	0.00928513	
0.0018225	0.0058818	0.00492426	
-0.00230845	0.00161875	0.00130063	
-0.00748068	0.0112452	0.00898998	
0.00791114	-0.0038971	0.00059927	
-0.00439846	0.0100407	0.0084209	
0.0019539	-0.00519219	-0.00758844	
0.0133616	-0.0200143	0.000263229	
-0.000475713	0.00611609	0.0110042	
-0.00179142	0.00963337	0.00876015	
0.0198378	-0.0345294	0.000836557	
-0.0702496	0.78336	-0.561311	
0.505524	-0.0295608	-0.0372204	
0.078341	0.161701	0.0391082	
-0.0509357	0.0176279	0.00263359	
-0.0031031	-0.0254921	0.031772	
-0.0760024	0.019563	-0.0264737	
0.0771367	-0.168275	-0.0112494	
0.0742813	-0.0147536	-0.0251744	
0.0794459	-0.0650732	-0.0281608	
0.0455678	0.0100916	-0.0117779	
0.0701472	-0.0506489	-0.0196654	
0.0312277	0.0130097	-0.0163814	
0.0965939	-0.0643277	-0.0117514	
0.0839931	-0.0664975	-0.00519855	
0.113841	-0.0899328	-0.0151951	
0.122849	-0.0914522	-0.0154736	
0.034326	0.0117641	-0.0176246	
0.117089	-0.0982294	-0.00885197	
0.124606	-0.0981346	-0.0169584	
0.133978	-0.104305	-0.0268063	
0.10642	-0.107678	-0.0143008	
0.10358	-0.097186	-0.00566181	
-0.00356799	0.019501	0.00645353	
0.00425357	0.0122463	0.00235764	
0.0035534	0.0097391	0.00615859	
0.0369111	-0.0404916	0.00658583	
0.0333649	-0.0452337	-0.00407133	
-0.0057896	0.00742666	0.0109083	
0.00920342	-0.0109228	0.00196101	
-0.00353356	0.0139707	0.0104251	
-0.0167786	0.0139495	0.00263599	
