-0.495887	-0.139447	-0.469875	
0.34588	0.134546	-0.523498	
-0.495888	-0.139447	-0.469874	
0.344346	0.134711	-0.524876	
-0.495884	-0.139446	-0.469873	
0.34185	0.134977	-0.527286	
-0.495874	-0.139446	-0.469872	
0.340467	0.135118	-0.528674	
-0.495859	-0.139445	-0.469872	
0.339173	0.135244	-0.530011	
-0.495845	-0.139444	-0.469871	
0.33836	0.13532	-0.530872	
-0.495817	-0.139442	-0.469871	
0.337215	0.135424	-0.532114	
-0.49679	-0.139443	-0.469869	
0.334159	0.135535	-0.533995	
-0.497	-0.139442	-0.469865	
0.333143	0.135573	-0.534699	
-0.497152	-0.13944	-0.469857	
0.331856	0.135625	-0.535702	
-0.497265	-0.139438	-0.469851	
0.331043	0.135653	-0.53633	
-0.497362	-0.139436	-0.469841	
0.329974	0.135689	-0.537213	
-0.49738	-0.139434	-0.469834	
0.329359	0.135709	-0.537761	
-0.497333	-0.139431	-0.469823	
0.32858	0.135732	-0.53852	
-0.4972	-0.139428	-0.469812	
0.327972	0.135748	-0.539202	
-0.497064	-0.139426	-0.469804	
0.327657	0.135755	-0.539612	
-0.496788	-0.139422	-0.469792	
0.327319	0.13576	-0.540161	
-0.496429	-0.139417	-0.469781	
0.327136	0.135758	-0.540628	
-0.495988	-0.139412	-0.469769	
0.327102	0.13575	-0.541012	
-0.495649	-0.139409	-0.469762	
0.327159	0.135742	-0.541222	
-0.495104	-0.139404	-0.469753	
0.327332	0.135723	-0.541466	
-0.494544	-0.139398	-0.469746	
0.32758	0.135698	-0.541625	
-0.493779	-0.13939	-0.46974	
0.328016	0.135653	-0.541707	
-0.493191	-0.139384	-0.469738	
0.328418	0.135612	-0.541671	
-0.492592	-0.139377	-0.469738	
0.328882	0.135565	-0.541553	
-0.491981	-0.13937	-0.46974	
0.329402	0.135511	-0.541355	
-0.491567	-0.139365	-0.469743	
0.329779	0.135471	-0.541179	
-0.490938	-0.139358	-0.469748	
0.330387	0.135407	-0.54085	
-0.490297	-0.13935	-0.469755	
0.331043	0.135337	-0.540447	
-0.489864	-0.139345	-0.46976	
0.331505	0.135287	-0.540137	
-0.489206	-0.139337	-0.46977	
0.332233	0.135207	-0.539614	
-0.488536	-0.139329	-0.469781	
0.332999	0.135122	-0.539023	
-0.487856	-0.13932	-0.469794	
0.3338	0.135031	-0.538368	
-0.487397	-0.139314	-0.469803	
0.334351	0.134967	-0.537896	
-0.4867	-0.139305	-0.469818	
0.335201	0.134867	-0.53714	
-0.48623	-0.139299	-0.469828	
0.335782	0.134798	-0.536605	
-0.485517	-0.13929	-0.469845	
0.336673	0.134689	-0.535758	
-0.485035	-0.139283	-0.469856	
0.337277	0.134614	-0.535166	
-0.484306	-0.139273	-0.469874	
0.338198	0.134497	-0.53424	
-0.483814	-0.139267	-0.469886	
0.338819	0.134416	-0.533599	
-0.483068	-0.139256	-0.469906	
0.33976	0.134291	-0.532605	
-0.482566	-0.139249	-0.469919	
0.340392	0.134205	-0.531922	
-0.481806	-0.139239	-0.469939	
0.341345	0.134072	-0.530871	
-0.481037	-0.139228	-0.469959	
0.3423	0.133935	-0.529793	
-0.480259	-0.139217	-0.46998	
0.343255	0.133794	-0.528692	
-0.479736	-0.139209	-0.469994	
0.34389	0.133697	-0.527946	
-0.477879	-0.139182	-0.470044	
0.346087	0.133346	-0.525291	
-0.477341	-0.139174	-0.470058	
0.346704	0.133242	-0.524524	
-0.476528	-0.139161	-0.470079	
0.347618	0.133083	-0.523373	
-0.475983	-0.139153	-0.470093	
0.348516	0.132922	-0.522223	
-0.47516	-0.139141	-0.470113	
0.349105	0.132813	-0.52146	
-0.474331	-0.139128	-0.470133	
0.349971	0.132646	-0.520322	
-0.473775	-0.139119	-0.470147	
0.350536	0.132534	-0.519571	
-0.472938	-0.139106	-0.470166	
0.351363	0.132364	-0.518459	
-0.472096	-0.139093	-0.470185	
0.352166	0.132193	-0.517366	
-0.471532	-0.139084	-0.470197	
0.352685	0.132077	-0.51665	
-0.470684	-0.13907	-0.470215	
0.353441	0.131903	-0.515599	
-0.469833	-0.139056	-0.470231	
0.354167	0.131728	-0.514577	
-0.469264	-0.139047	-0.470242	
0.354633	0.131611	-0.513915	
-0.468409	-0.139033	-0.470258	
0.355306	0.131435	-0.512951	
-0.467839	-0.139023	-0.470267	
0.355736	0.131318	-0.512329	
-0.466982	-0.139009	-0.470281	
0.356353	0.131142	-0.511431	
-0.466125	-0.138994	-0.470294	
0.356935	0.130967	-0.510577	
-0.465269	-0.138979	-0.470306	
0.357481	0.130793	-0.509769	
-0.464699	-0.138969	-0.470313	
0.357991	0.130621	-0.509009	
-0.463846	-0.138954	-0.470323	
0.358311	0.130507	-0.508531	
-0.462995	-0.138939	-0.470332	
0.35876	0.130338	-0.507858	
-0.461585	-0.138914	-0.470344	
0.359426	0.130061	-0.506856	
-0.460746	-0.138898	-0.470349	
0.359776	0.1299	-0.50633	
-0.460189	-0.138888	-0.470352	
0.359988	0.129794	-0.506012	
-0.459359	-0.138872	-0.470356	
0.360277	0.129639	-0.505583	
-0.458265	-0.138851	-0.470358	
0.360604	0.12944	-0.505105	
-0.457453	-0.138835	-0.470358	
0.360808	0.129295	-0.504816	
-0.456651	-0.138819	-0.470358	
0.360977	0.129157	-0.504588	
-0.455859	-0.138803	-0.470355	
0.361111	0.129024	-0.50442	
-0.455338	-0.138793	-0.470353	
0.361181	0.128939	-0.504343	
-0.454565	-0.138776	-0.470349	
0.36126	0.128817	-0.504276	
-0.454057	-0.138766	-0.470345	
0.361294	0.128739	-0.504266	
-0.452815	-0.138738	-0.470334	
0.361318	0.12856	-0.504354	
-0.451614	-0.138711	-0.470319	
0.36126	0.128402	-0.504604	
-0.450915	-0.138695	-0.470309	
0.361188	0.128319	-0.504829	
-0.450459	-0.138684	-0.470301	
0.361124	0.128268	-0.505009	
-0.450011	-0.138673	-0.470293	
0.36105	0.128221	-0.505213	
-0.449355	-0.138657	-0.470281	
0.360917	0.128159	-0.505563	
-0.448719	-0.138641	-0.470267	
0.360761	0.128106	-0.505964	
-0.448307	-0.13863	-0.470257	
0.360644	0.128076	-0.506258	
-0.447706	-0.138613	-0.470241	
0.360451	0.12804	-0.506738	
-0.447128	-0.138597	-0.470225	
0.360239	0.128013	-0.507263	
-0.446573	-0.138581	-0.470208	
0.360007	0.127998	-0.507831	
-0.446216	-0.13857	-0.470196	
0.359843	0.127993	-0.508232	
-0.445702	-0.138554	-0.470178	
0.359584	0.127995	-0.508865	
-0.445213	-0.138538	-0.470159	
0.35931	0.128008	-0.509533	
-0.444902	-0.138527	-0.470146	
0.35912	0.128023	-0.509997	
-0.444602	-0.138517	-0.470133	
0.358924	0.128042	-0.510475	
-0.444176	-0.138501	-0.470112	
0.35862	0.128081	-0.511215	
-0.443779	-0.138485	-0.470092	
0.358306	0.12813	-0.511982	
-0.44341	-0.138469	-0.470071	
0.357983	0.128191	-0.512772	
-0.44318	-0.138459	-0.470057	
0.357763	0.128238	-0.513309	
-0.442861	-0.138443	-0.470035	
0.357428	0.128317	-0.51413	
-0.442572	-0.138428	-0.470014	
0.357087	0.128407	-0.514967	
-0.442161	-0.138403	-0.469978	
0.356509	0.12858	-0.516385	
-0.441957	-0.138388	-0.469957	
0.356158	0.128698	-0.517245	
-0.441786	-0.138373	-0.469935	
0.355806	0.128826	-0.518109	
-0.44169	-0.138363	-0.469921	
0.355571	0.128917	-0.518686	
-0.441574	-0.138348	-0.469901	
0.355219	0.129062	-0.519549	
