M3 ERROR: Error reading config for m3head_ms2
M3 ERROR: M3Dynamatics: no chain found with name: m3head_ms2
M3 ERROR: M3HeadS2CSPCtrl m3head_s2csp_ctrl_ms2 did not find component m3humanoid_right_left_arm_torso_head_mr8
M3 ERROR: Detected dropped M3RtDataService. Stopping RtSystem;
